<svg xmlns="http://www.w3.org/2000/svg" xmlns:xlink="http://www.w3.org/1999/xlink" width="700" height="2200" viewBox="0 0 700 2300">
   <defs>
      <path id="a" d="M33.14 22.54a10.42 10.42 0 1 0-10.42 10.4 10.42 10.42 0 0 0 10.42-10.4zm-10.43 8.41a8.42 8.42 0 1 1 8.43-8.42 8.43 8.43 0 0 1-8.43 8.42zM37.1 33l-4.57-4.36A9 9 0 0 1 29.37 32l4.56 4.36a1.94 1.94 0 0 0 2.74-.06l.48-.5a1.94 1.94 0 0 0-.05-2.8z"/>
      <path id="b" d="M25 13.32l3.63 7.36 8.12 1.18-5.88 5.73 1.39 8.09L25 31.86l-7.26 3.82 1.39-8.09-5.88-5.73 8.12-1.18z"/>
      <path id="c" d="M15.25 29.3h14.11a.89.89 0 0 0 .85-.64l1.66-6.6V22l.95-3.77c.14-.61-.18-1.13-.7-1.13H13.31c-.53 0-.84.51-.71 1.13l1.81 10.48a.88.88 0 0 0 .84.59zm2.2-1.82h-1.81l-.29-2.17h2.09zm0-3.61h-2.29l-.24-1.81h2.53v1.81zm10.11-5.42H31l-.49 2.17h-3zm0 3.61h2.67l-.41 1.81h-2.26zm0 3.25h1.93L29 27.48h-1.44v-2.16zm-4.33-6.86h2.89v2.17h-2.89zm0 3.61h2.89v1.81h-2.89zm0 3.25h2.89v2.17h-2.89zm-4.33-6.86h2.89v2.17h-2.9zm0 3.61h2.89v1.81h-2.9zm0 3.25h2.89v2.17h-2.9zm-1.44-6.86v2.17h-2.73l-.29-2.17zm22.18-3.25h-4.7L31 30.37H15.24a.72.72 0 1 0 0 1.43H32.1l4.13-15.14h3.39a.73.73 0 1 0 0-1.45zm-22.21 17a1.8 1.8 0 1 0 1.79 1.8 1.8 1.8 0 0 0-1.81-1.81zm11.55 0a1.81 1.81 0 1 0 1.79 1.8A1.81 1.81 0 0 0 29 32.17z"/>
      <path id="d" d="M36.1 31.3V17.19a12.41 12.41 0 0 0-3.1-.94v6.63l-1.53-1.15L30 22.88V16a10.12 10.12 0 0 0-4.59 1.11v13.4a10.56 10.56 0 0 1 5.13-1.1 9.54 9.54 0 0 1 5.56 1.89zm-11.48-.77V17.14a10.22 10.22 0 0 0-5.1-1.14 13.58 13.58 0 0 0-5.63 1.17V31.3a9.72 9.72 0 0 1 5.63-1.87 10.32 10.32 0 0 1 5.1 1.1zm12.25-11.1v12.64h-10v.77h-3.78v-.77h-10V19.43H12v13.78h9.57V34h6.89v-.77H38v-13.8z"/>
      <path id="e" d="M35.67 30.43a18.71 18.71 0 0 0-6.75-1.68c-2.17 0-3.43.75-6.07 1-1.67.14-4.21.44-4.29 1.29s1.14 1 2.87 1.3 4.09-.1 4.15.15-.62.37-1.92.8a11.4 11.4 0 0 1-5.4.06c-1.36-.43-3.69-2.14-5.55-3.07S10 30 10 30.4s2.78 3.11 6 4.92c3 1.61 5 2.89 7 2.83 1.73-.05 7.8-2.09 9-2.45.9-.28 3.51 1.59 3.51 1.59L40 32.7s-2.54-1.47-4.33-2.27zm-4.34-15.3l-7.6-2.28-7.6 2.28 7.6 2.28zm-8 3l-7.22-2.28v8.36l7.22 2.28v-8.33zm8 6.08v-8.32l-7.22 2.28v8.35z"/>
      <path id="f" d="M25 11.53A13.47 13.47 0 1 0 38.47 25 13.47 13.47 0 0 0 25 11.53zm0 25.6A12.13 12.13 0 1 1 37.13 25 12.13 12.13 0 0 1 25 37.13zm3.83-19.32l-3.69 6.62-3.69-6.62h-4.36l4.27 6.89H18.3V27h4.48l.5.81v.35h-5v2.27h5v3.79H27v-3.79h5v-2.27h-5v-.35l.5-.81H32v-2.3h-3.06l4.27-6.89z"/>
      <path id="g" d="M31 21.5H16V23h15zm0-3H16V20h15zM26 26H16v1.5h10zm2.5 2.5h3v-3h-3zm7-9v-5H12v18h4v3h22v-16zM34 31H13.51V16H34z"/>
      <path id="h" d="M36.94 27c-.12-1.25-1.82-2-3.78-2.21 1.3-.39 2.24-1.05 2.24-2V19c-.15-1.58-2.85-2.31-5.38-2.31s-5.23.73-5.38 2.31v3.78c0 1.33 1.76 2.08 3.78 2.34-1.24.37-2.15 1-2.24 1.9v3.45a13 13 0 0 0-1.52-.09 12.88 12.88 0 0 0-1.7.11 1.75 1.75 0 0 0 .89-1.49V15.44c-.15-1.58-2.86-2.31-5.38-2.31s-5.23.73-5.38 2.31V29c0 1.68 2.8 2.44 5.4 2.44a12.88 12.88 0 0 0 1.7-.11 1.8 1.8 0 0 0-.91 1.31v3.78c0 1.68 2.8 2.45 5.4 2.45s5.4-.77 5.4-2.45v-3.3a13 13 0 0 0 1.53.09c2.6 0 5.41-.77 5.41-2.45V27zM18.45 14.69c2.23 0 3.54.59 3.8.88-.26.29-1.57.88-3.8.88s-3.54-.59-3.8-.88c.25-.29 1.56-.88 3.8-.88zm-3.83 2.66a10.23 10.23 0 0 0 3.83.66 10.23 10.23 0 0 0 3.84-.66V20c-.15.27-1.48.92-3.83.92s-3.71-.67-3.83-.88v-2.68zm0 4.43a10.24 10.24 0 0 0 3.83.66 10.23 10.23 0 0 0 3.84-.66v2.59c-.13.27-1.46.93-3.84.93s-3.71-.67-3.83-.88zm0 7.21v-2.77a10.24 10.24 0 0 0 3.83.66 10.24 10.24 0 0 0 3.84-.66v2.73c-.13.27-1.46.93-3.84.93s-3.72-.67-3.84-.88zM30 18.22c2.23 0 3.54.59 3.8.88-.26.29-1.57.88-3.8.88s-3.54-.59-3.8-.88c.27-.3 1.58-.88 3.8-.88zm-3.83 2.66a10.23 10.23 0 0 0 3.83.66 10.23 10.23 0 0 0 3.83-.66v1.81c-.13.27-1.46.93-3.84.93s-3.71-.67-3.83-.88zm5.36 5.35c2.24 0 3.55.59 3.81.88-.26.29-1.57.88-3.81.88s-3.55-.59-3.81-.88c.28-.29 1.59-.88 3.83-.88zM27 32.17a5 5 0 0 0 1.4.63 6.41 6.41 0 0 1-3.78.86c-2.23 0-3.54-.59-3.8-.88.26-.29 1.57-.88 3.8-.88a10 10 0 0 1 2.38.27zm-2.38 5.13c-2.38 0-3.71-.67-3.83-.88v-1.86a10.23 10.23 0 0 0 3.83.66 10.23 10.23 0 0 0 3.84-.66v1.81c-.13.27-1.46.93-3.84.93zm6.93-5.66a10.28 10.28 0 0 1-2.37-.26 5 5 0 0 0-1.47-.66V28.9a10.25 10.25 0 0 0 3.84.66 10.25 10.25 0 0 0 3.84-.66v1.81c-.13.29-1.46.94-3.84.94z"/>
      <path id="i" d="M12 35h4.21v-8.16h5.25v-4h-5.25V19.3h6.15V15H12zm21.38-10.31L37.6 15H33l-2.3 6.16L28.3 15h-4.61l4.25 9.58L23.26 35h4.68l2.68-6.43L33.29 35H38z"/>
      <path id="j" d="M37.1 12.9a1.92 1.92 0 0 1 0 2.67l-6 6 3.34 14-2 2-6-11.37-6 6 .28 3.8-1.65 1.66-2.24-4.46-4.45-2.22 1.75-1.74 3.6.4 6-6-11.37-6 2-2 14 3.34 6-6a1.92 1.92 0 0 1 2.74-.08z"/>
      <path id="k" d="M39.54 16H10.45A1.47 1.47 0 0 0 9 17.48v15A1.47 1.47 0 0 0 10.45 34h29.09A1.47 1.47 0 0 0 41 32.5v-15a1.47 1.47 0 0 0-1.46-1.5zM19.46 28.9h-2.27l-2.92-4.38v4.38H12v-8h2.25l2.94 4.41v-4.39h2.27zm3.57 0h-2.42v-8H23zm6.22-.2a4.61 4.61 0 0 1-1.88.34 3.82 3.82 0 0 1-2.76-.78 3.12 3.12 0 0 1-.87-2l2.3-.15a1.82 1.82 0 0 0 .3.87 1.26 1.26 0 0 0 1.07.48 1.16 1.16 0 0 0 .8-.25.75.75 0 0 0 .28-.57.74.74 0 0 0-.27-.55 3.06 3.06 0 0 0-1.22-.46 5.17 5.17 0 0 1-2.26-1 2 2 0 0 1-.74-1.51 2.12 2.12 0 0 1 .39-1.12 2.33 2.33 0 0 1 1-.86 4.82 4.82 0 0 1 1.92-.31 3.86 3.86 0 0 1 2.28.57 2.47 2.47 0 0 1 .93 1.81l-2.27.14a1.26 1.26 0 0 0-.38-.78 1.21 1.21 0 0 0-.8-.25 1 1 0 0 0-.63.18.56.56 0 0 0-.21.44.45.45 0 0 0 .18.34 1.94 1.94 0 0 0 .81.29 10 10 0 0 1 2.27.71 2.4 2.4 0 0 1 1 .88 2.28 2.28 0 0 1 .31 1.18 2.57 2.57 0 0 1-.41 1.41 2.61 2.61 0 0 1-1.14.95zm7.35.2l-.39-1.32h-2.73l-.38 1.32h-2.47l2.93-8h2.64l2.93 8zm-2.61-3h1.71l-.85-2.9z"/>
      <path id="l" d="M36.52 18.92l-9.33 5.75 10.54 3A13.13 13.13 0 0 0 38 25a13 13 0 0 0-1.48-6.08zm.28 7.31L30 24.29l6-3.72a11.82 11.82 0 0 1 .78 5.66zM25.89 12v11.38l9.69-6A13 13 0 0 0 25.89 12zm-1.77 0a13 13 0 1 0 13.11 17.39l-13.1-3.95zM25 36.85a11.87 11.87 0 0 1-2-23.56v13l.81.25 11.88 3.58A11.89 11.89 0 0 1 25 36.85z"/>
      <path id="m" d="M16.27 23.31a.19.19 0 0 0-.15.09L14.46 26a.34.34 0 0 0-.05.15s0 .15.17.15h1.83v-2.83s-.03-.16-.14-.16zm8.73-9.8c-8.91 0-16.14 5.14-16.14 11.49S16.09 36.49 25 36.49 41.14 31.35 41.14 25 33.91 13.51 25 13.51zm-6.77 14.28v1.13c0 .36-.09.83-.88.83-.56 0-.94-.16-.94-.83v-1.13h-2.47a1 1 0 0 1-1-1.06 1.5 1.5 0 0 1 .23-.81L16 21.46a1.39 1.39 0 0 1 1.21-.7.93.93 0 0 1 1.05.89v4.67c.38 0 1 0 1 .73s-.62.74-1.03.74zm4.42 2c-2.74 0-3.07-2.92-3.07-4.5a6.41 6.41 0 0 1 .88-3.48 2.83 2.83 0 0 1 2.19-1c2.71 0 3.07 2.85 3.07 4.49s-.34 4.45-3.07 4.45zm7.43-.83c0 .36-.1.83-.88.83-.53 0-1-.13-1-.83v-5.14H27a.62.62 0 0 1-.63-.68c0-.54.37-.6.82-.67a1.64 1.64 0 0 0 1.34-1.09c.14-.36.24-.62.79-.62s.76.31.76.55v7.61zm6.85.83c-.23 0-.4-.07-.67-.45L34.7 27.1l-1 .87v1c0 .33-.08.82-.87.82-.57 0-.93-.17-.93-.82v-7.39c0-.33.08-.82.87-.82.56 0 .93.17.93.82v4l2.5-2.26c.34-.3.49-.3.6-.3a1.07 1.07 0 0 1 1 .93.8.8 0 0 1-.28.56L36 25.88l1.77 2.53a.83.83 0 0 1 .16.46 1 1 0 0 1-1 .88zm-14.28-7.55c-1.24 0-1.24 2.33-1.24 3s0 3 1.24 3 1.24-2.33 1.24-3-.01-3-1.24-3z"/>
      <path id="n" d="M15 23.3l13 7.51.87-1.5-13-7.51zm2.6-4.5l-.87 1.5 13 7.51.87-1.5zm-4.3 7.5l8.25 4.77.87-1.5-8.26-4.77zm9.14 7.28l3 1.73 1.73-3-3-1.73zM35.22 12l-6.86 2.07-2-2.84-7.26 5.08-2.53-1.46-7.8 13.51 18 10.4 1.81-3.13 12.63-3.7zm-8.86 25.18l-16-9.24L17 16.43l16 9.24zm11.91-8.88L29 15.08l5.4-1.63 5.34 17.7-10.39 3.21z"/>
      <path id="o" d="M36.72 23l.05-.1c1.45-2.78 1.63-5.14.5-6.64a5 5 0 0 0-4.18-1.64 12.06 12.06 0 0 0-1.93.17q-.51-.31-1-.56A12 12 0 0 0 13 26.81q.09.57.23 1.13c-1.44 2.77-1.61 5.12-.49 6.62a5 5 0 0 0 4.18 1.64 13.08 13.08 0 0 0 2.86-.35 26.45 26.45 0 0 0 9.56-4.68A25.85 25.85 0 0 0 36.72 23zM13.6 24.51v-.06q0-.53.09-1.06c0-.16 0-.32.08-.49v-.08c0-.15.06-.3.09-.45v-.07c0-.17.08-.33.13-.5a11.13 11.13 0 0 1 .57-1.54l.23-.46q.26-.49.57-1a11.25 11.25 0 0 1 1.51-1.8 11.14 11.14 0 0 1 1.23-1.07q.43-.32.88-.59l.42-.24c.26-.14.53-.26.79-.38a.51.51 0 0 0 .09.34c.18.16.52.42.73.36s.59-.17.55-.48-.3-.28-.39-.38l-.13-.17c.27-.09.55-.18.83-.25h.08l.46-.11.48-.09h.1l.39-.05h3.45a11.23 11.23 0 0 1 7.09 4.64l.22.34v.07l.18.3a2.84 2.84 0 0 1-.35.14c-.14 0-.45-.17-.52-.06s.34.94.35 1.47-.55.48-.68.43-.41.13-.43.59 0 .53-.1.57-.28-1-.27-1.17-.6-.43-.81-.29.21 1.5.15 1.77-.55.48-1 .73-1.52-.6-1.9-.57-.3.88-.26 1.31-.65.69-1 .57-.45-1.49-.68-1.4-.45 1.1-.36 1.64 0 .84-.23.93-.17-1.84.14-2.3.36-.9.15-1-.08-1.25-.07-1.54-1.53-.41-2-.24-.91.84-1.53 1.15-.29-1.2 0-1.84A1.91 1.91 0 0 0 22.7 18c-.54-.36-.46-1.49-.68-1.7s-.19 1 0 1.52-1.94.4-2.43.32.76-2.07.55-2.21-1.24 1.7-1.44 2.1.85.8.72 1-2.47 1.2-2.91 1.5-.47 1.72-.83 2.08a2.69 2.69 0 0 0-1.1 1.67 2.51 2.51 0 0 1-.9 1.41v-.24-.41-.11s-.08-.27-.08-.42zM29.1 27a4.25 4.25 0 0 0-.92.91c-.18.28-.41 0-.6-.12s-.47-.55-.39-.74c.23-.53.5-.51.85-.44a4.19 4.19 0 0 0 1.18-.22c.16 0 .06.53-.12.61zm-3.58-2.63c.43-.11.28.54.4 1s.24.79.33 1.25 0 .57-.25.68-.35-1.47-.32-1.64-.29-1.25-.16-1.29zm-7.95 10.16a9.18 9.18 0 0 1-1.15.08A4.09 4.09 0 0 1 13 33.23c-.9-1.2-.8-3 .25-5.19q.15.55.34 1.09a11.94 11.94 0 0 0 3.17 4.72c3-.13 7.15-1.94 11-4.79a28.22 28.22 0 0 0 5.83-5.74 5.49 5.49 0 0 1-.53-.22s-.29.2-.38.19.1-.47.17-.52a8.42 8.42 0 0 1 .95.11c.13 0 .33-.37.42-.48l.11-.17a2.4 2.4 0 0 1-.11-.25l.26-.22a.59.59 0 0 1 .08.13 10.41 10.41 0 0 0 1.05-2.34 11.91 11.91 0 0 0-3.34-4c-.24-.19-.49-.37-.75-.54l-.21-.13a9.3 9.3 0 0 1 1.23-.09 4.09 4.09 0 0 1 3.43 1.37c.81 1.08.79 2.63.1 4.4-1.1 2.81-3.9 6.18-7.85 9.13-3.66 2.66-7.6 4.46-10.65 4.84zm14-4.15c.06.14.12.28.16.4a1.77 1.77 0 0 1-.24 1c-.06.08 0-.41 0-.57s-.56-.13-.71-.14l-.92.71-.5.37a.5.5 0 0 0 .09.16c.12.12.84-.73 1.16-.79s-.37.87-.54 1.36a5.66 5.66 0 0 1-1.3 1.54c-.32.31-1.83.23-2 .23s0-.41-.06-.78a25.7 25.7 0 0 1-5.68 2.47 12 12 0 0 0 14-4.75 11.92 11.92 0 0 0 2-7.33 26.19 26.19 0 0 1-5.5 6.11z"/>
      <path id="p" d="M28 26.37a9.85 9.85 0 0 0 .66-2.48h1.74v-2.71h-1.72a9.84 9.84 0 0 0-.68-2.47l1.51-.87-1.36-2.35-1.54.89a10 10 0 0 0-1.82-1.77l.9-1.57-2.35-1.36-.92 1.6a9.86 9.86 0 0 0-2.42-.62v-1.88h-2.69v1.94a9.87 9.87 0 0 0-2.37.66l-1-1.7L11.61 13l1 1.74a10 10 0 0 0-1.68 1.73l-1.77-1-1.36 2.36 1.79 1A9.86 9.86 0 0 0 9 21.18H6.9v2.72H9a9.85 9.85 0 0 0 .61 2.31l-1.79 1 1.34 2.39 1.77-1a10 10 0 0 0 1.68 1.73l-1 1.74L14 33.41l1-1.7a9.89 9.89 0 0 0 2.37.66v1.93H20v-1.88a9.86 9.86 0 0 0 2.43-.61l.92 1.6L25.72 32l-.9-1.57a10 10 0 0 0 1.82-1.77l1.54.89 1.36-2.35zm-9.36 2a5.88 5.88 0 1 1 5.88-5.88 5.88 5.88 0 0 1-5.86 5.92zm24.44 4.7v-1.55h-1a5.77 5.77 0 0 0-.39-1.45l.89-.51-.8-1.38-.9.52a5.83 5.83 0 0 0-1.07-1l.53-.92-1.34-.84-.54.94a5.79 5.79 0 0 0-1.46-.36v-1.1h-1.6v1.14a5.78 5.78 0 0 0-1.39.39l-.58-1-1.38.8.59 1a5.9 5.9 0 0 0-1 1l-1-.6-.8 1.38 1.05.61a5.79 5.79 0 0 0-.36 1.36h-1.24v1.59h1.22a5.8 5.8 0 0 0 .36 1.36l-1.05.61.8 1.38 1-.6a5.87 5.87 0 0 0 1 1l-.59 1 1.38.8.58-1a5.78 5.78 0 0 0 1.39.39v1.14H37v-1.05a5.75 5.75 0 0 0 1.42-.36l.54.94 1.38-.8-.53-.9a5.85 5.85 0 0 0 1.07-1l.9.52.8-1.38-.89-.51a5.75 5.75 0 0 0 .39-1.45zm-6.91 2.65a3.45 3.45 0 1 1 3.45-3.45 3.45 3.45 0 0 1-3.43 3.5z"/>
      <path id="q" d="M23.91,28.89s-2.7-4.47-2.7-4.53c-0.52-1.21-.55-2.68.59-3.35L18,14.55c-1.24.89-5.33,5.66-.07,14.79C23.42,39,29.66,38,31,37.21l-3.75-6.3C26.13,31.54,25.34,30.71,23.91,28.89ZM34.9,34h0L32,29.05a0.93,0.93,0,0,0-1.28-.19l-2.21,1.3,3.76,6.32,2.21-1.3h0A0.92,0.92,0,0,0,34.9,34ZM25,19.14h0a0.92,0.92,0,0,0,.45-1.21h0l-3-5.05a0.93,0.93,0,0,0-1.28-.19L18.93,14l3.85,6.46Z"/>
      <path id="r" d="M28.43 24.92l-5.26-5.26-9.9 10.77 4.39 4.39zM20 36.85c-1.83 1.65-3 2.62-4.34 1.8a2.86 2.86 0 0 1-1.5-2 4.74 4.74 0 0 1 1.2-3.22l-.74-.67a5.67 5.67 0 0 0-1.45 4 3.4 3.4 0 0 0 1 1.95 5.19 5.19 0 0 0 1 .75c2 1.25 3.81-.36 5.53-1.91 2.28-2.06 4.64-4.19 8.17-1.23l.64-.76c-4.23-3.47-7.16-.83-9.51 1.29zM34.92 13a6.69 6.69 0 0 0-10.11.76l9.35 9.35A6.69 6.69 0 0 0 34.92 13zm-11.41 4.77l6.66 6.66a6.71 6.71 0 0 0 2.39-.43l-8.62-8.62a6.7 6.7 0 0 0-.43 2.39z"/>
      <path id="q" d="M25.16,17.62L14.37,25V36.06H22V27.82h6.34v8.24h7.61V25ZM35.3,19.75v-4H32.13v1.77l-7-4.85L10.58,22.83l1.65,2.35,12.92-8.8L38.1,25.2l1.63-2.37Z" />
      <path id="r" d="M25.16,15.37a10,10,0,1,0,10,10A10,10,0,0,0,25.16,15.37Zm5.66,14.24L29.41,31l-4.24-4.24L20.92,31l-1.41-1.41,4.24-4.24-4.24-4.24,1.41-1.41L25.16,24l4.24-4.24,1.41,1.41-4.24,4.24Z" />
      <path id="s" d="M31.5,21.5h-13a1,1,0,0,0-1,1v7a1,1,0,0,0,1,1h13a1,1,0,0,0,1-1v-7A1,1,0,0,0,31.5,21.5Zm-8.33,5.43H21.28v1.95h-1V23.36h2.94c1.23,0,1.69.55,1.69,1.77S24.5,26.93,23.17,26.93Zm4.93,2c-2,0-2.61-.46-2.61-2.72,0-2.06.31-2.91,2.47-2.91,1.53,0,2.43.27,2.45,2h-1c0-1-.53-1.11-1.43-1.11-1.25,0-1.55.19-1.55,2,0,1.5.15,1.91,1.48,1.91s1.52-.1,1.53-1.23h1C30.46,28.57,29.63,28.93,28.1,28.93Zm-5-4.69H21.28V26h1.81A0.73,0.73,0,0,0,24,25.15C24,24.32,23.63,24.25,23.1,24.25Z" />
      <path id="t" d="M29.75,31.87h-9v-13h9v2.5h1.5v-4h-12v16h12v-4h-1.5v2.5Zm6-6.5-4-4v2.5h-5.5v3h5.5v2.5Z" />
      <path id="u" d="M36.47,17.88H14.85v2.21h0.88v2.65H14.85v4h0.88v2.65H14.85v1.77H36.47V17.88ZM27.64,28a3.53,3.53,0,1,1,3.53-3.53A3.53,3.53,0,0,1,27.64,28Zm7.72-1a1.1,1.1,0,1,1-1.54-1V23a1.1,1.1,0,1,1,.88,0V26A1.1,1.1,0,0,1,35.37,27Zm-7.71-3.84A1.37,1.37,0,1,0,29,24.5,1.37,1.37,0,0,0,27.65,23.13Zm10.73-8.77H12.91A1.61,1.61,0,0,0,11.31,16v17.1A1.61,1.61,0,0,0,13,34.64h1.89v1.77h2.65V34.64H33.82v1.77h2.65V34.64h2A1.53,1.53,0,0,0,40,33.07V16A1.61,1.61,0,0,0,38.39,14.36ZM37.35,32H14V29.35H13.08V26.7H14v-4H13.08V20.08H14V17H37.35V32Z" />
      <path id="v" d="M36.11,31.1a40.94,40.94,0,0,0-6.37-2.62s-3,2.94-4.3,2.94-4.3-2.94-4.3-2.94a41,41,0,0,0-6.37,2.62c-1.7,1.1-2.85,6.36-2.85,6.36H39S38.11,32.4,36.11,31.1ZM25.54,29c3.2,0,6.49-4.49,6.49-9.19s-2.9-7.31-6.49-7.31-6.49,2.6-6.49,7.31S22.31,29,25.54,29Z" />
      <path id="w" d="M23.47,28V22A17.4,17.4,0,0,0,34,17.78V32.22A17.4,17.4,0,0,0,23.47,28Zm-2.89,5.45L19.24,28H17.9a9.29,9.29,0,0,1-.58-2H16.57a0.67,0.67,0,0,1-.67-0.67V24.67A0.67,0.67,0,0,1,16.57,24h0.76a9.28,9.28,0,0,1,.58-2h4.55v6H21.25l1.34,5.46h-2Z" />
      <path id="x" d="M14.57,20.88a1.07,1.07,0,0,0,1.4-.57,5.44,5.44,0,0,1,4.84-3.54h8.3a5.44,5.44,0,0,1,4.84,3.54,1.07,1.07,0,1,0,2-.83,7.55,7.55,0,0,0-6.8-4.84H28A2.12,2.12,0,1,0,24.9,12a2.12,2.12,0,1,0-3.14,2.62h-1A7.55,7.55,0,0,0,14,19.48,1.06,1.06,0,0,0,14.57,20.88ZM24.9,13.76a2.13,2.13,0,0,0,.73.88H24.17A2.13,2.13,0,0,0,24.9,13.76ZM35,23.58c-1.89-1.1-2.34-5.75-5.25-5.75H20.2c-2.92,0-3.36,4.64-5.25,5.75a7.31,7.31,0,0,0-3.49,6.08,7.08,7.08,0,0,0,7.1,7.06H31.36a7.08,7.08,0,0,0,7.1-7.06A7.31,7.31,0,0,0,35,23.58ZM27.8,26.69a7.93,7.93,0,0,0,1.4-.09v1.55a8.78,8.78,0,0,0-1.4-.09H26.42L26,28.72V29h1.79a9,9,0,0,0,1.39-.09V30.5a8.17,8.17,0,0,0-1.39-.09H26v0.71a10,10,0,0,0,.1,1.75H23.81a12.63,12.63,0,0,0,.11-1.75V30.41H22.08a8.4,8.4,0,0,0-1.39.09V28.95a7.92,7.92,0,0,0,1.39.09h1.84V28.72l-0.43-.65H22.11a8.35,8.35,0,0,0-1.4.09V26.61a8.29,8.29,0,0,0,1.4.09h0.55L21,24c-0.31-.52-0.52-0.82-0.93-1.41h2.64a6.1,6.1,0,0,0,.6,1.27L25,26.79l1.64-2.9a5.53,5.53,0,0,0,.59-1.28h2.66c-0.18.25-.77,1.12-0.94,1.41l-1.65,2.67H27.8Z" />
      <path id="y" d="M19,18V32H31V18H19Zm5.5,3.5h1v3h-1v-3Zm-2-1.5h1v4.5h-1V20Zm-2,2h1v2.5h-1V22Zm9,8h-9V29.5h9V30Zm0-1.5h-9V28h9v0.5Zm0-1.5h-9V26.5h9V27Zm0-2.5h-3V24h3v0.5Zm0-1.5h-3V22.5h3V23Zm0-1.5h-3V21h3v0.5Z" />
      <path id="z" d="M18.16,18.32l2.91,11.53,6-1.93-5.39-6,6.5,5.7L33.45,26Zm9.31,13.54V28.69l-2.25.7Z" />
      <path id="aa" d="M26,20.5A2.5,2.5,0,1,0,23.5,18,2.5,2.5,0,0,0,26,20.5Zm0,3A2.5,2.5,0,1,0,28.5,26,2.5,2.5,0,0,0,26,23.5Zm0,8A2.5,2.5,0,1,0,28.5,34,2.5,2.5,0,0,0,26,31.5Z" />
      <path id="ab" d="M35,28.38v1h1v4H15.5v-4h1v-1h-2v6H37v-6H35Zm-8-.5v-2.5l-3,2.2v-9.2H21v9.2l-3-2.2v2.5l4.5,3.21Zm2.5,2h3V20.62l3,2.26v-2.5L31,17.13l-4.5,3.25v2.5l3-2.26v9.26Z" />
      <path id="ac" d="M24.93,15a10,10,0,0,0-9.87,8.46H13l2.84,3.51,2.84-3.51h-2a8.38,8.38,0,1,1,.26,4.15l-1.5.57A10,10,0,1,0,24.93,15Zm-0.76,4v7.53h0.19l0,0.16L30,28.26l0.41-1.53-4.66-1.27V19H24.17Z" />
      <path id="ad" d="M29,30l4-4-4-4H26l2.5,2.5H20v3h8.5L26,30h3ZM28.5,18v2.5h1V19h6V33h-6V31.5h-1V34h8V18h-8Zm-6,15h-6V19h6v3h1V18h-8V34h8V30h-1v3Z" />
      <path id="ae" d="M37.52,21.18l-8.9-5.48L15,24.59l8.9,5.48ZM21.18,22.83l1.47-1,3.29,1L25.14,20l1.47-1,0.69,3,1-.73L29,21.91,27.53,23l0.08,0.35,0.11,0.1,1.68-1.19,0.7,0.65-1.68,1.19,1.17,1.09-1.26.89L27.16,25l-1.68,1.19-0.7-.65,1.68-1.19-0.11-.1-0.42-.11-1.51,1.07-0.71-.66,1-.73Zm2.7,10.81-7.54-4.79L15,29.73l8.9,5.48,13.62-8.89-1.29-.8Zm0-2.54-7.54-4.79L15,27.19l8.9,5.48,13.62-8.89L36.23,23Z" />
      <path id="af" d="M25.32,28.75V26.5H22.11V25.21h-2l-3.87,3.57,5.87,5.45V31.32h9.64V26.5H27.9Zm0.32-.86,5.81-5.39-5.81-5.33v2.89H16v4.82h9.65v3Zm7.83-13V18h0.08l0,0.07,2.4,0.66,0.17-.65-2-.54V14.85H33.48Zm0.4-1.52a4.07,4.07,0,0,0-4,3.3H29.07l1.28,1.58,1.28-1.58h-0.8a3.15,3.15,0,1,1,.05,1.74L30,18.71A4.08,4.08,0,1,0,33.88,13.34Z" />
      <path id="ag" d="M22.56,22.28l2.84,2.84,4-4,1.7,1.6V17H25.43l1.63,1.73L25.4,20.38l-2.84-2.84-5.92,5.92L19,25.83Zm3.31,9,5.92-5.92L29.43,23l-3.55,3.55L23,23.7l-4,4L17.39,26v5.69h5.69l-1.71-1.64L23,28.43Zm8.65-4v3.18H34.6l0,0.07L37,31.17l0.17-.65-2-.54V27.27H34.52Zm0.4-1.52a4.07,4.07,0,0,0-4,3.3H30.11l1.28,1.58L32.67,29h-0.8a3.15,3.15,0,1,1,.05,1.74l-0.87.33A4.08,4.08,0,1,0,34.92,25.75Z" />
      <path id="ah" d="M24.76,16.12a13,13,0,0,0-.57,3.64,1.06,1.06,0,0,0,.64.63s0.43,1.41.9,1.54a0.72,0.72,0,0,0,.9-0.6,3.07,3.07,0,0,0,2.52.38c-0.43,3.42-1.34,4-1.64,7.76-1.65-2.53-3-3.2-5.62-3.2s-5.07,2.09-5.07,4.31,1.51,5,5.65,4.81c4.35-.15,5-0.48,7.06-0.44s2.26-.17,2.78-1.45,2-2.35,1.58-5.64-1.54-6.53-1.62-8.16-0.94-2.43-2.69-3.07S25.36,15.82,24.76,16.12Z" />
      <path id="ai" d="M37.43,21.8a1.74,1.74,0,0,0-2.73,2l-4.39,2.49L29.5,20.58a1.74,1.74,0,1,0-1.31-.24l-2.81,5.16-2.81-5.16a1.74,1.74,0,1,0-1.31.24l-0.81,5.74-4.39-2.49a1.74,1.74,0,1,0-1,.89l3.11,7a19.07,19.07,0,0,1,7.19-1.14,19.07,19.07,0,0,1,7.19,1.14l3.11-7A1.74,1.74,0,0,0,37.43,21.8ZM25.38,31.31a18,18,0,0,0-7,1.14v1.71a34.09,34.09,0,0,1,7-.84,34.18,34.18,0,0,1,7,.84V32.45A18,18,0,0,0,25.38,31.31Z" />
      <path id="aj" d="M30,30.5H20.5v1H30v-1ZM30,28H20.5v1H30V28ZM19.5,20.5h-1v1h1v-1Zm10.5,0H20.5v1H30v-1Zm0,5H20.5v1H30v-1ZM30,23H20.5v1H30V23ZM19.5,23h-1v1h1V23Zm-3-5.5v17H32v-17H16.5ZM31,33.5H17.5v-15H31v15ZM19.5,28h-1v1h1V28Zm0-2.5h-1v1h1v-1Zm0,5h-1v1h1v-1Z" />
      <path id="ak" d="M17.75,33.75h13.5V19.25H17.75v14.5Zm2-12.5h9.5v1h-9.5v-1Zm0,2h9.5v1h-9.5v-1Zm0,2h9.5v1h-9.5v-1Zm0,2h9.5v1h-9.5v-1Zm0,2h9.5v1h-9.5v-1Zm0,2h6v1h-6v-1Zm-0.5-14v1h13v14h1v-15h-14Z" />
      <path id="al" d="M13.5,35.75h11v-9h-11v9ZM28,15.25v20.5H39V15.25H28ZM11,25.75H27v-0.5H11v0.5Zm0-10H27v-0.5H11v0.5Zm4.69,6.42,2.81,2.24,2.81-2.24H19.62V18.81h1.68L18.5,16.56l-2.81,2.24h1.68v3.37H15.69Z" />
      <path id="am" d="M29.77,25.45H12.14l5,6.3V28.59l12.6-.06V25.45ZM12.14,21v3.15H29.77l-5-6.3V21H20.47a16.29,16.29,0,0,0,3.24-3.58,5.19,5.19,0,0,0,.05-5,3.68,3.68,0,0,0-3.32-1.85A4,4,0,0,0,17,12.23a4,4,0,0,0-3.47-1.61,3.67,3.67,0,0,0-3.32,1.85,5.18,5.18,0,0,0,.05,5A16.27,16.27,0,0,0,13.49,21H12.14Zm-0.77-4.22a3.91,3.91,0,0,1-.05-3.71,2.39,2.39,0,0,1,2.2-1.21c2.52,0,2.8,1.9,2.83,2.11h1.28c0-.09.23-2.11,2.83-2.11a2.39,2.39,0,0,1,2.2,1.21,3.91,3.91,0,0,1-.05,3.71A20.44,20.44,0,0,1,18.52,21H15.44A20.44,20.44,0,0,1,11.37,16.82ZM36.79,28l-6.08,2.14L38.17,32Zm-12.2,4.29L21,33.59l2.69,7.64L30.3,38.9l-6.88-1.65Zm1.18-2.83L24,36.88l15.82,3.8,1.78-7.4Z" />
      <path id="an" d="M40.89,32.09c-0.38-3.28-1.53-6.52-1.62-8.14s-0.94-2.43-2.69-3.07-4.21-.81-4.8-0.51A13,13,0,0,0,31.21,24a1.07,1.07,0,0,0,.64.63s0.43,1.41.89,1.53a0.72,0.72,0,0,0,.9-0.6,3.07,3.07,0,0,0,2.52.38c-0.43,3.41-1.34,4-1.63,7.75-1.65-2.53-3-3.2-5.61-3.2s-5.06,2.09-5.06,4.31,1.51,4.95,5.64,4.8c4.34-.15,5-0.48,7-0.44s2.26-.17,2.77-1.45S41.28,35.38,40.89,32.09ZM29.08,25.86H11.58l5,6.25V29l12.51-.06V25.86Zm-17.5-4.38v3.13h17.5l-5-6.25v3.13H19.85a16.17,16.17,0,0,0,3.22-3.55,5.15,5.15,0,0,0,.05-5,3.65,3.65,0,0,0-3.29-1.83,4,4,0,0,0-3.44,1.6,4,4,0,0,0-3.44-1.6A3.65,3.65,0,0,0,9.65,13a5.15,5.15,0,0,0,.05,5,16.16,16.16,0,0,0,3.22,3.55H11.58Zm-0.77-4.19a3.88,3.88,0,0,1-.05-3.69,2.37,2.37,0,0,1,2.18-1.2c2.5,0,2.78,1.88,2.81,2.09H17c0-.09.23-2.09,2.81-2.09A2.38,2.38,0,0,1,22,13.61,3.88,3.88,0,0,1,22,17.29a20.27,20.27,0,0,1-4,4.19H14.86A20.29,20.29,0,0,1,10.81,17.29Z" />
      <path id="ao" d="M25.45,14l-6.74,2,6.74,2,6.74-2Zm-0.34,4.72-6.4-2v7.41l6.4,2V18.67Zm7.07-2-6.4,2v7.41l6.4-2V16.65ZM11.8,26.93l6.74,2,6.74-2-6.74-2Zm0,8.08,6.4,2V29.63l-6.4-2V35Zm7.07,2,6.4-2V27.61l-6.4,2V37Zm13.7-12.13-6.74,2,6.74,2,6.74-2ZM25.83,35l6.4,2V29.63l-6.4-2V35Zm7.07,2,6.4-2V27.61l-6.4,2V37Z" />
      <path id="ap" d="M16.22,12.73v2.36l18.58,3.65v0l2.67-.64V15.74l-2.69.58ZM35.93,38.58l1.49-.39V18.89l-1.49.3V38.58Zm1.54-23.09L18.73,11.95l-2.52.52L34.8,16.09Zm-2.85,3.7L16.18,15.6A17.26,17.26,0,0,1,9,29.45L27.44,33S34.62,30,34.62,19.19Zm-8.16,3.39-3-.82c-0.22.6-.35,0.89-0.62,1.46l0.42,0.12a3,3,0,0,1,1.55,4.36A3.49,3.49,0,0,1,19.62,29a5.9,5.9,0,0,1-1.56-1.68,15.43,15.43,0,0,0,1.2-1.11,4.48,4.48,0,0,0,1.27,1.23,1.56,1.56,0,0,0,2.26-.54c0.6-1.08-.34-2.1-1.38-2.52A8,8,0,0,0,20.5,24a24.84,24.84,0,0,0,1.85-4.42l4.55,0.85A19.37,19.37,0,0,1,26.46,22.58Zm4.77,13.83L16.88,33.62v1.53l18.44,3.58V19.47a31.8,31.8,0,0,1-.55,6C33.89,33,31.22,36.41,31.22,36.41Zm3.13-11.65c-1.68,6.91-6.63,9-6.63,9L16.47,31.55,13,30.88c-0.37.8-.61,1.23-0.61,1.23l4.09,0.8,14.35,2.79S33.48,32.24,34.35,24.76Z" />
      <path id="aq" d="M25.16,17.62L14.37,25V36.06H22V27.82h6.34v8.24h7.61V25ZM35.3,19.75v-4H32.13v1.77l-7-4.85L10.58,22.83l1.65,2.35,12.92-8.8L38.1,25.2l1.63-2.37Z" />
      <path id="ar" d="M25.16,15.37a10,10,0,1,0,10,10A10,10,0,0,0,25.16,15.37Zm5.66,14.24L29.41,31l-4.24-4.24L20.92,31l-1.41-1.41,4.24-4.24-4.24-4.24,1.41-1.41L25.16,24l4.24-4.24,1.41,1.41-4.24,4.24Z" />
      <path id="as" d="M25.91,25H24.1a0.6,0.6,0,0,0-.6.6v1.79a0.6,0.6,0,0,0,.6.6h1.81a0.6,0.6,0,0,0,.6-0.6V25.64A0.6,0.6,0,0,0,25.91,25Zm7.48-10.53H16.61a2.11,2.11,0,0,0-2.11,2.11V29.39a2.11,2.11,0,0,0,2.11,2.11H21.5v4l5-4h6.9a2.11,2.11,0,0,0,2.11-2.11V16.62A2.11,2.11,0,0,0,33.39,14.51Zm-0.69,16H26.07l-3.58,3v-3H17.31a1.59,1.59,0,0,1-1.8-1.8V17.4a1.67,1.67,0,0,1,1.88-1.88H32.62A1.67,1.67,0,0,1,34.5,17.4V28.74A1.6,1.6,0,0,1,32.7,30.54Zm-6.79-13H24.1a0.6,0.6,0,0,0-.6.6v5.27a0.6,0.6,0,0,0,.6.6h1.81a0.6,0.6,0,0,0,.6-0.6V18.15A0.6,0.6,0,0,0,25.91,17.55Z" />
      <path id="at" d="M15,21h6V15H15v6Zm7,0h6V15H22v6Zm7-6v6h6V15H29ZM15,28h6V22H15v6Zm7,0h6V22H22v6Zm7,0h6V22H29v6ZM15,35h6V29H15v6Zm7,0h6V29H22v6Zm7,0h6V29H29v6Z" />
   </defs>
   <use xlink:href="#a" fill="#bf0000"/>
   <use xlink:href="#a" fill="#333" 	 x="50"/>
   <use xlink:href="#a" fill="#666" 	 x="100"/>
   <use xlink:href="#a" fill="#999" 	 x="150"/>
   <use xlink:href="#a" fill="#ddd" 	 x="200"/>
   <use xlink:href="#a" fill="#f7f7f7" x="250"/>
   <use xlink:href="#a" fill="#fff" 	 x="300"/>
   <use xlink:href="#a" fill="#848fa4" x="350"/>
   <use xlink:href="#a" fill="#ec2d2d" x="400"/>
   <use xlink:href="#a" fill="#039" 	 x="450"/>
   <use xlink:href="#a" fill="#335fb9" x="500"/>
   <use xlink:href="#a" fill="#4086de" x="550"/>
   <use xlink:href="#a" fill="#ea0000" x="600"/>
   <use xlink:href="#a" fill="#2ebc12" x="650"/>
   <use xlink:href="#b" fill="#bf0000" 				y="50"/>
   <use xlink:href="#b" fill="#333"		 x="50"  y="50"/>
   <use xlink:href="#b" fill="#666"		 x="100" y="50"/>
   <use xlink:href="#b" fill="#999"		 x="150" y="50"/>
   <use xlink:href="#b" fill="#ddd"		 x="200" y="50"/>
   <use xlink:href="#b" fill="#f7f7f7" x="250" y="50"/>
   <use xlink:href="#b" fill="#fff"		 x="300" y="50"/>
   <use xlink:href="#b" fill="#848fa4" x="350" y="50"/>
   <use xlink:href="#b" fill="#ec2d2d" x="400" y="50"/>
   <use xlink:href="#b" fill="#039"		 x="450" y="50"/>
   <use xlink:href="#b" fill="#335fb9" x="500" y="50"/>
   <use xlink:href="#b" fill="#4086de" x="550" y="50"/>
   <use xlink:href="#b" fill="#ea0000" x="600" y="50"/>
   <use xlink:href="#b" fill="#2ebc12" x="650" y="50"/>
   <use xlink:href="#c" fill="#bf0000" 				 y="100"/>
   <use xlink:href="#c" fill="#333"		 x="50"  y="100"/>
   <use xlink:href="#c" fill="#666"		 x="100" y="100"/>
   <use xlink:href="#c" fill="#999"		 x="150" y="100"/>
   <use xlink:href="#c" fill="#ddd"		 x="200" y="100"/>
   <use xlink:href="#c" fill="#f7f7f7" x="250" y="100"/>
   <use xlink:href="#c" fill="#fff"		 x="300" y="100"/>
   <use xlink:href="#c" fill="#848fa4" x="350" y="100"/>
   <use xlink:href="#c" fill="#ec2d2d" x="400" y="100"/>
   <use xlink:href="#c" fill="#039"		 x="450" y="100"/>
   <use xlink:href="#c" fill="#335fb9" x="500" y="100"/>
   <use xlink:href="#c" fill="#4086de" x="550" y="100"/>
   <use xlink:href="#c" fill="#ea0000" x="600" y="100"/>
   <use xlink:href="#c" fill="#2ebc12" x="650" y="100"/>
   <use xlink:href="#d" fill="#bf0000" 				 y="150"/>
   <use xlink:href="#d" fill="#333"		 x="50"  y="150"/>
   <use xlink:href="#d" fill="#666"		 x="100" y="150"/>
   <use xlink:href="#d" fill="#999"		 x="150" y="150"/>
   <use xlink:href="#d" fill="#ddd"		 x="200" y="150"/>
   <use xlink:href="#d" fill="#f7f7f7" x="250" y="150"/>
   <use xlink:href="#d" fill="#fff"		 x="300" y="150"/>
   <use xlink:href="#d" fill="#848fa4" x="350" y="150"/>
   <use xlink:href="#d" fill="#ec2d2d" x="400" y="150"/>
   <use xlink:href="#d" fill="#039"		 x="450" y="150"/>
   <use xlink:href="#d" fill="#335fb9" x="500" y="150"/>
   <use xlink:href="#d" fill="#4086de" x="550" y="150"/>
   <use xlink:href="#d" fill="#ea0000" x="600" y="150"/>
   <use xlink:href="#d" fill="#2ebc12" x="650" y="150"/>
   <use xlink:href="#e" fill="#bf0000" 				 y="200"/>
   <use xlink:href="#e" fill="#333"		 x="50"  y="200"/>
   <use xlink:href="#e" fill="#666"		 x="100" y="200"/>
   <use xlink:href="#e" fill="#999"		 x="150" y="200"/>
   <use xlink:href="#e" fill="#ddd"		 x="200" y="200"/>
   <use xlink:href="#e" fill="#f7f7f7" x="250" y="200"/>
   <use xlink:href="#e" fill="#fff"		 x="300" y="200"/>
   <use xlink:href="#e" fill="#848fa4" x="350" y="200"/>
   <use xlink:href="#e" fill="#ec2d2d" x="400" y="200"/>
   <use xlink:href="#e" fill="#039"		 x="450" y="200"/>
   <use xlink:href="#e" fill="#335fb9" x="500" y="200"/>
   <use xlink:href="#e" fill="#4086de" x="550" y="200"/>
   <use xlink:href="#e" fill="#ea0000" x="600" y="200"/>
   <use xlink:href="#e" fill="#2ebc12" x="650" y="200"/>
   <use xlink:href="#f" fill="#bf0000" 				 y="250"/>
   <use xlink:href="#f" fill="#333"		 x="50"  y="250"/>
   <use xlink:href="#f" fill="#666"		 x="100" y="250"/>
   <use xlink:href="#f" fill="#999"		 x="150" y="250"/>
   <use xlink:href="#f" fill="#ddd"		 x="200" y="250"/>
   <use xlink:href="#f" fill="#f7f7f7" x="250" y="250"/>
   <use xlink:href="#f" fill="#fff"		 x="300" y="250"/>
   <use xlink:href="#f" fill="#848fa4" x="350" y="250"/>
   <use xlink:href="#f" fill="#ec2d2d" x="400" y="250"/>
   <use xlink:href="#f" fill="#039"		 x="450" y="250"/>
   <use xlink:href="#f" fill="#335fb9" x="500" y="250"/>
   <use xlink:href="#f" fill="#4086de" x="550" y="250"/>
   <use xlink:href="#f" fill="#ea0000" x="600" y="250"/>
   <use xlink:href="#f" fill="#2ebc12" x="650" y="250"/>
   <use xlink:href="#g" fill="#bf0000" 				 y="300"/>
   <use xlink:href="#g" fill="#333"		 x="50"  y="300"/>
   <use xlink:href="#g" fill="#666"		 x="100" y="300"/>
   <use xlink:href="#g" fill="#999"		 x="150" y="300"/>
   <use xlink:href="#g" fill="#ddd"		 x="200" y="300"/>
   <use xlink:href="#g" fill="#f7f7f7" x="250" y="300"/>
   <use xlink:href="#g" fill="#fff"		 x="300" y="300"/>
   <use xlink:href="#g" fill="#848fa4" x="350" y="300"/>
   <use xlink:href="#g" fill="#ec2d2d" x="400" y="300"/>
   <use xlink:href="#g" fill="#039"		 x="450" y="300"/>
   <use xlink:href="#g" fill="#335fb9" x="500" y="300"/>
   <use xlink:href="#g" fill="#4086de" x="550" y="300"/>
   <use xlink:href="#g" fill="#ea0000" x="600" y="300"/>
   <use xlink:href="#g" fill="#2ebc12" x="650" y="300"/>
   <use xlink:href="#h" fill="#bf0000" 				 y="350"/>
   <use xlink:href="#h" fill="#333"		 x="50"  y="350"/>
   <use xlink:href="#h" fill="#666"		 x="100" y="350"/>
   <use xlink:href="#h" fill="#999"		 x="150" y="350"/>
   <use xlink:href="#h" fill="#ddd"		 x="200" y="350"/>
   <use xlink:href="#h" fill="#f7f7f7" x="250" y="350"/>
   <use xlink:href="#h" fill="#fff"		 x="300" y="350"/>
   <use xlink:href="#h" fill="#848fa4" x="350" y="350"/>
   <use xlink:href="#h" fill="#ec2d2d" x="400" y="350"/>
   <use xlink:href="#h" fill="#039"		 x="450" y="350"/>
   <use xlink:href="#h" fill="#335fb9" x="500" y="350"/>
   <use xlink:href="#h" fill="#4086de" x="550" y="350"/>
   <use xlink:href="#h" fill="#ea0000" x="600" y="350"/>
   <use xlink:href="#h" fill="#2ebc12" x="650" y="350"/>
   <use xlink:href="#i" fill="#bf0000" 				 y="400"/>
   <use xlink:href="#i" fill="#333"		 x="50"  y="400"/>
   <use xlink:href="#i" fill="#666"		 x="100" y="400"/>
   <use xlink:href="#i" fill="#999"		 x="150" y="400"/>
   <use xlink:href="#i" fill="#ddd"		 x="200" y="400"/>
   <use xlink:href="#i" fill="#f7f7f7" x="250" y="400"/>
   <use xlink:href="#i" fill="#fff"		 x="300" y="400"/>
   <use xlink:href="#i" fill="#848fa4" x="350" y="400"/>
   <use xlink:href="#i" fill="#ec2d2d" x="400" y="400"/>
   <use xlink:href="#i" fill="#039"		 x="450" y="400"/>
   <use xlink:href="#i" fill="#335fb9" x="500" y="400"/>
   <use xlink:href="#i" fill="#4086de" x="550" y="400"/>
   <use xlink:href="#i" fill="#ea0000" x="600" y="400"/>
   <use xlink:href="#i" fill="#2ebc12" x="650" y="400"/>
   <use xlink:href="#j" fill="#bf0000" 				 y="450"/>
   <use xlink:href="#j" fill="#333"		 x="50"  y="450"/>
   <use xlink:href="#j" fill="#666"		 x="100" y="450"/>
   <use xlink:href="#j" fill="#999"		 x="150" y="450"/>
   <use xlink:href="#j" fill="#ddd"		 x="200" y="450"/>
   <use xlink:href="#j" fill="#f7f7f7" x="250" y="450"/>
   <use xlink:href="#j" fill="#fff"		 x="300" y="450"/>
   <use xlink:href="#j" fill="#848fa4" x="350" y="450"/>
   <use xlink:href="#j" fill="#ec2d2d" x="400" y="450"/>
   <use xlink:href="#j" fill="#039"		 x="450" y="450"/>
   <use xlink:href="#j" fill="#335fb9" x="500" y="450"/>
   <use xlink:href="#j" fill="#4086de" x="550" y="450"/>
   <use xlink:href="#j" fill="#ea0000" x="600" y="450"/>
   <use xlink:href="#j" fill="#2ebc12" x="650" y="450"/>
   <use xlink:href="#k" fill="#bf0000" 				 y="500"/>
   <use xlink:href="#k" fill="#333"		 x="50"  y="500"/>
   <use xlink:href="#k" fill="#666"		 x="100" y="500"/>
   <use xlink:href="#k" fill="#999"		 x="150" y="500"/>
   <use xlink:href="#k" fill="#ddd"		 x="200" y="500"/>
   <use xlink:href="#k" fill="#f7f7f7" x="250" y="500"/>
   <use xlink:href="#k" fill="#fff"		 x="300" y="500"/>
   <use xlink:href="#k" fill="#848fa4" x="350" y="500"/>
   <use xlink:href="#k" fill="#ec2d2d" x="400" y="500"/>
   <use xlink:href="#k" fill="#039"		 x="450" y="500"/>
   <use xlink:href="#k" fill="#335fb9" x="500" y="500"/>
   <use xlink:href="#k" fill="#4086de" x="550" y="500"/>
   <use xlink:href="#k" fill="#ea0000" x="600" y="500"/>
   <use xlink:href="#k" fill="#2ebc12" x="650" y="500"/>
   <use xlink:href="#l" fill="#bf0000" 				 y="550"/>
   <use xlink:href="#l" fill="#333"		 x="50"  y="550"/>
   <use xlink:href="#l" fill="#666"		 x="100" y="550"/>
   <use xlink:href="#l" fill="#999"		 x="150" y="550"/>
   <use xlink:href="#l" fill="#ddd"		 x="200" y="550"/>
   <use xlink:href="#l" fill="#f7f7f7" x="250" y="550"/>
   <use xlink:href="#l" fill="#fff"		 x="300" y="550"/>
   <use xlink:href="#l" fill="#848fa4" x="350" y="550"/>
   <use xlink:href="#l" fill="#ec2d2d" x="400" y="550"/>
   <use xlink:href="#l" fill="#039"		 x="450" y="550"/>
   <use xlink:href="#l" fill="#335fb9" x="500" y="550"/>
   <use xlink:href="#l" fill="#4086de" x="550" y="550"/>
   <use xlink:href="#l" fill="#ea0000" x="600" y="550"/>
   <use xlink:href="#l" fill="#2ebc12" x="650" y="550"/>
   <use xlink:href="#m" fill="#bf0000" 				 y="600"/>
   <use xlink:href="#m" fill="#333"		 x="50"  y="600"/>
   <use xlink:href="#m" fill="#666"		 x="100" y="600"/>
   <use xlink:href="#m" fill="#999"		 x="150" y="600"/>
   <use xlink:href="#m" fill="#ddd"		 x="200" y="600"/>
   <use xlink:href="#m" fill="#f7f7f7" x="250" y="600"/>
   <use xlink:href="#m" fill="#fff"		 x="300" y="600"/>
   <use xlink:href="#m" fill="#848fa4" x="350" y="600"/>
   <use xlink:href="#m" fill="#ec2d2d" x="400" y="600"/>
   <use xlink:href="#m" fill="#039"		 x="450" y="600"/>
   <use xlink:href="#m" fill="#335fb9" x="500" y="600"/>
   <use xlink:href="#m" fill="#4086de" x="550" y="600"/>
   <use xlink:href="#m" fill="#ea0000" x="600" y="600"/>
   <use xlink:href="#m" fill="#2ebc12" x="650" y="600"/>
   <use xlink:href="#n" fill="#bf0000" 				 y="650"/>
   <use xlink:href="#n" fill="#333"		 x="50"  y="650"/>
   <use xlink:href="#n" fill="#666"		 x="100" y="650"/>
   <use xlink:href="#n" fill="#999"		 x="150" y="650"/>
   <use xlink:href="#n" fill="#ddd"		 x="200" y="650"/>
   <use xlink:href="#n" fill="#f7f7f7" x="250" y="650"/>
   <use xlink:href="#n" fill="#fff"		 x="300" y="650"/>
   <use xlink:href="#n" fill="#848fa4" x="350" y="650"/>
   <use xlink:href="#n" fill="#ec2d2d" x="400" y="650"/>
   <use xlink:href="#n" fill="#039"		 x="450" y="650"/>
   <use xlink:href="#n" fill="#335fb9" x="500" y="650"/>
   <use xlink:href="#n" fill="#4086de" x="550" y="650"/>
   <use xlink:href="#n" fill="#ea0000" x="600" y="650"/>
   <use xlink:href="#n" fill="#2ebc12" x="650" y="650"/>
   <use xlink:href="#o" fill="#bf0000" 				 y="700"/>
   <use xlink:href="#o" fill="#333"		 x="50"  y="700"/>
   <use xlink:href="#o" fill="#666"		 x="100" y="700"/>
   <use xlink:href="#o" fill="#999"		 x="150" y="700"/>
   <use xlink:href="#o" fill="#ddd"		 x="200" y="700"/>
   <use xlink:href="#o" fill="#f7f7f7" x="250" y="700"/>
   <use xlink:href="#o" fill="#fff"		 x="300" y="700"/>
   <use xlink:href="#o" fill="#848fa4" x="350" y="700"/>
   <use xlink:href="#o" fill="#ec2d2d" x="400" y="700"/>
   <use xlink:href="#o" fill="#039"		 x="450" y="700"/>
   <use xlink:href="#o" fill="#335fb9" x="500" y="700"/>
   <use xlink:href="#o" fill="#4086de" x="550" y="700"/>
   <use xlink:href="#o" fill="#ea0000" x="600" y="700"/>
   <use xlink:href="#o" fill="#2ebc12" x="650" y="700"/>
   <use xlink:href="#p" fill="#bf0000" 				 y="750"/>
   <use xlink:href="#p" fill="#333"		 x="50"  y="750"/>
   <use xlink:href="#p" fill="#666"		 x="100" y="750"/>
   <use xlink:href="#p" fill="#999"		 x="150" y="750"/>
   <use xlink:href="#p" fill="#ddd"		 x="200" y="750"/>
   <use xlink:href="#p" fill="#f7f7f7" x="250" y="750"/>
   <use xlink:href="#p" fill="#fff"		 x="300" y="750"/>
   <use xlink:href="#p" fill="#848fa4" x="350" y="750"/>
   <use xlink:href="#p" fill="#ec2d2d" x="400" y="750"/>
   <use xlink:href="#p" fill="#039"		 x="450" y="750"/>
   <use xlink:href="#p" fill="#335fb9" x="500" y="750"/>
   <use xlink:href="#p" fill="#4086de" x="550" y="750"/>
   <use xlink:href="#p" fill="#ea0000" x="600" y="750"/>
   <use xlink:href="#p" fill="#2ebc12" x="650" y="750"/>
   <use xlink:href="#q" fill="#bf0000" 				 y="800"/>
   <use xlink:href="#q" fill="#333"		 x="50"  y="800"/>
   <use xlink:href="#q" fill="#666"		 x="100" y="800"/>
   <use xlink:href="#q" fill="#999"		 x="150" y="800"/>
   <use xlink:href="#q" fill="#ddd"		 x="200" y="800"/>
   <use xlink:href="#q" fill="#f7f7f7" x="250" y="800"/>
   <use xlink:href="#q" fill="#fff"		 x="300" y="800"/>
   <use xlink:href="#q" fill="#848fa4" x="350" y="800"/>
   <use xlink:href="#q" fill="#ec2d2d" x="400" y="800"/>
   <use xlink:href="#q" fill="#039"		 x="450" y="800"/>
   <use xlink:href="#q" fill="#335fb9" x="500" y="800"/>
   <use xlink:href="#q" fill="#4086de" x="550" y="800"/>
   <use xlink:href="#q" fill="#ea0000" x="600" y="800"/>
   <use xlink:href="#q" fill="#2ebc12" x="650" y="800"/>
   <use xlink:href="#r" fill="#bf0000" 				 y="850"/>
   <use xlink:href="#r" fill="#333"		 x="50"  y="850"/>
   <use xlink:href="#r" fill="#666"		 x="100" y="850"/>
   <use xlink:href="#r" fill="#999"		 x="150" y="850"/>
   <use xlink:href="#r" fill="#ddd"		 x="200" y="850"/>
   <use xlink:href="#r" fill="#f7f7f7" x="250" y="850"/>
   <use xlink:href="#r" fill="#fff"		 x="300" y="850"/>
   <use xlink:href="#r" fill="#848fa4" x="350" y="850"/>
   <use xlink:href="#r" fill="#ec2d2d" x="400" y="850"/>
   <use xlink:href="#r" fill="#039"		 x="450" y="850"/>
   <use xlink:href="#r" fill="#335fb9" x="500" y="850"/>
   <use xlink:href="#r" fill="#4086de" x="550" y="850"/>
   <use xlink:href="#r" fill="#ea0000" x="600" y="850"/>
   <use xlink:href="#r" fill="#2ebc12" x="650" y="850"/>
   <use xlink:href="#s" fill="#bf0000" 				 y="900"/>
   <use xlink:href="#s" fill="#333"		 x="50"  y="900"/>
   <use xlink:href="#s" fill="#666"		 x="100" y="900"/>
   <use xlink:href="#s" fill="#999"		 x="150" y="900"/>
   <use xlink:href="#s" fill="#ddd"		 x="200" y="900"/>
   <use xlink:href="#s" fill="#f7f7f7" x="250" y="900"/>
   <use xlink:href="#s" fill="#fff"		 x="300" y="900"/>
   <use xlink:href="#s" fill="#848fa4" x="350" y="900"/>
   <use xlink:href="#s" fill="#ec2d2d" x="400" y="900"/>
   <use xlink:href="#s" fill="#039"		 x="450" y="900"/>
   <use xlink:href="#s" fill="#335fb9" x="500" y="900"/>
   <use xlink:href="#s" fill="#4086de" x="550" y="900"/>
   <use xlink:href="#s" fill="#ea0000" x="600" y="900"/>
   <use xlink:href="#s" fill="#2ebc12" x="650" y="900"/>
   <use xlink:href="#t" fill="#bf0000" 				 y="950"/>
   <use xlink:href="#t" fill="#333"		 x="50"  y="950"/>
   <use xlink:href="#t" fill="#666"		 x="100" y="950"/>
   <use xlink:href="#t" fill="#999"		 x="150" y="950"/>
   <use xlink:href="#t" fill="#ddd"		 x="200" y="950"/>
   <use xlink:href="#t" fill="#f7f7f7" x="250" y="950"/>
   <use xlink:href="#t" fill="#fff"		 x="300" y="950"/>
   <use xlink:href="#t" fill="#848fa4" x="350" y="950"/>
   <use xlink:href="#t" fill="#ec2d2d" x="400" y="950"/>
   <use xlink:href="#t" fill="#039"		 x="450" y="950"/>
   <use xlink:href="#t" fill="#335fb9" x="500" y="950"/>
   <use xlink:href="#t" fill="#4086de" x="550" y="950"/>
   <use xlink:href="#t" fill="#ea0000" x="600" y="950"/>
   <use xlink:href="#t" fill="#2ebc12" x="650" y="950"/>
   <use xlink:href="#u" fill="#bf0000" 				 y="1000"/>
   <use xlink:href="#u" fill="#333"		 x="50"  y="1000"/>
   <use xlink:href="#u" fill="#666"		 x="100" y="1000"/>
   <use xlink:href="#u" fill="#999"		 x="150" y="1000"/>
   <use xlink:href="#u" fill="#ddd"		 x="200" y="1000"/>
   <use xlink:href="#u" fill="#f7f7f7" x="250" y="1000"/>
   <use xlink:href="#u" fill="#fff"		 x="300" y="1000"/>
   <use xlink:href="#u" fill="#848fa4" x="350" y="1000"/>
   <use xlink:href="#u" fill="#ec2d2d" x="400" y="1000"/>
   <use xlink:href="#u" fill="#039"		 x="450" y="1000"/>
   <use xlink:href="#u" fill="#335fb9" x="500" y="1000"/>
   <use xlink:href="#u" fill="#4086de" x="550" y="1000"/>
   <use xlink:href="#u" fill="#ea0000" x="600" y="1000"/>
   <use xlink:href="#u" fill="#2ebc12" x="650" y="1000"/>
   <use xlink:href="#v" fill="#bf0000" 				 y="1050"/>
   <use xlink:href="#v" fill="#333"		 x="50"  y="1050"/>
   <use xlink:href="#v" fill="#666"		 x="100" y="1050"/>
   <use xlink:href="#v" fill="#999"		 x="150" y="1050"/>
   <use xlink:href="#v" fill="#ddd"		 x="200" y="1050"/>
   <use xlink:href="#v" fill="#f7f7f7" x="250" y="1050"/>
   <use xlink:href="#v" fill="#fff"		 x="300" y="1050"/>
   <use xlink:href="#v" fill="#848fa4" x="350" y="1050"/>
   <use xlink:href="#v" fill="#ec2d2d" x="400" y="1050"/>
   <use xlink:href="#v" fill="#039"		 x="450" y="1050"/>
   <use xlink:href="#v" fill="#335fb9" x="500" y="1050"/>
   <use xlink:href="#v" fill="#4086de" x="550" y="1050"/>
   <use xlink:href="#v" fill="#ea0000" x="600" y="1050"/>
   <use xlink:href="#v" fill="#2ebc12" x="650" y="1050"/>
   <use xlink:href="#w" fill="#bf0000" 				 y="1100"/>
   <use xlink:href="#w" fill="#333"		 x="50"  y="1100"/>
   <use xlink:href="#w" fill="#666"		 x="100" y="1100"/>
   <use xlink:href="#w" fill="#999"		 x="150" y="1100"/>
   <use xlink:href="#w" fill="#ddd"		 x="200" y="1100"/>
   <use xlink:href="#w" fill="#f7f7f7" x="250" y="1100"/>
   <use xlink:href="#w" fill="#fff"		 x="300" y="1100"/>
   <use xlink:href="#w" fill="#848fa4" x="350" y="1100"/>
   <use xlink:href="#w" fill="#ec2d2d" x="400" y="1100"/>
   <use xlink:href="#w" fill="#039"		 x="450" y="1100"/>
   <use xlink:href="#w" fill="#335fb9" x="500" y="1100"/>
   <use xlink:href="#w" fill="#4086de" x="550" y="1100"/>
   <use xlink:href="#w" fill="#ea0000" x="600" y="1100"/>
   <use xlink:href="#w" fill="#2ebc12" x="650" y="1100"/>
   <use xlink:href="#x" fill="#bf0000" 				 y="1150"/>
   <use xlink:href="#x" fill="#333"		 x="50"  y="1150"/>
   <use xlink:href="#x" fill="#666"		 x="100" y="1150"/>
   <use xlink:href="#x" fill="#999"		 x="150" y="1150"/>
   <use xlink:href="#x" fill="#ddd"		 x="200" y="1150"/>
   <use xlink:href="#x" fill="#f7f7f7" x="250" y="1150"/>
   <use xlink:href="#x" fill="#fff"		 x="300" y="1150"/>
   <use xlink:href="#x" fill="#848fa4" x="350" y="1150"/>
   <use xlink:href="#x" fill="#ec2d2d" x="400" y="1150"/>
   <use xlink:href="#x" fill="#039"		 x="450" y="1150"/>
   <use xlink:href="#x" fill="#335fb9" x="500" y="1150"/>
   <use xlink:href="#x" fill="#4086de" x="550" y="1150"/>
   <use xlink:href="#x" fill="#ea0000" x="600" y="1150"/>
   <use xlink:href="#x" fill="#2ebc12" x="650" y="1150"/>
   <use xlink:href="#y" fill="#bf0000" 				 y="1200"/>
   <use xlink:href="#y" fill="#333"		 x="50"  y="1200"/>
   <use xlink:href="#y" fill="#666"		 x="100" y="1200"/>
   <use xlink:href="#y" fill="#999"		 x="150" y="1200"/>
   <use xlink:href="#y" fill="#ddd"		 x="200" y="1200"/>
   <use xlink:href="#y" fill="#f7f7f7" x="250" y="1200"/>
   <use xlink:href="#y" fill="#fff"		 x="300" y="1200"/>
   <use xlink:href="#y" fill="#848fa4" x="350" y="1200"/>
   <use xlink:href="#y" fill="#ec2d2d" x="400" y="1200"/>
   <use xlink:href="#y" fill="#039"		 x="450" y="1200"/>
   <use xlink:href="#y" fill="#335fb9" x="500" y="1200"/>
   <use xlink:href="#y" fill="#4086de" x="550" y="1200"/>
   <use xlink:href="#y" fill="#ea0000" x="600" y="1200"/>
   <use xlink:href="#y" fill="#2ebc12" x="650" y="1200"/>
   <use xlink:href="#z" fill="#bf0000" 				 y="1250"/>
   <use xlink:href="#z" fill="#333"		 x="50"  y="1250"/>
   <use xlink:href="#z" fill="#666"		 x="100" y="1250"/>
   <use xlink:href="#z" fill="#999"		 x="150" y="1250"/>
   <use xlink:href="#z" fill="#ddd"		 x="200" y="1250"/>
   <use xlink:href="#z" fill="#f7f7f7" x="250" y="1250"/>
   <use xlink:href="#z" fill="#fff"		 x="300" y="1250"/>
   <use xlink:href="#z" fill="#848fa4" x="350" y="1250"/>
   <use xlink:href="#z" fill="#ec2d2d" x="400" y="1250"/>
   <use xlink:href="#z" fill="#039"		 x="450" y="1250"/>
   <use xlink:href="#z" fill="#335fb9" x="500" y="1250"/>
   <use xlink:href="#z" fill="#4086de" x="550" y="1250"/>
   <use xlink:href="#z" fill="#ea0000" x="600" y="1250"/>
   <use xlink:href="#z" fill="#2ebc12" x="650" y="1250"/>
   <use xlink:href="#aa" fill="#bf0000" 			  y="1300"/>
   <use xlink:href="#aa" fill="#333" 		x="50"  y="1300"/>
   <use xlink:href="#aa" fill="#666" 		x="100" y="1300"/>
   <use xlink:href="#aa" fill="#999" 		x="150" y="1300"/>
   <use xlink:href="#aa" fill="#ddd" 		x="200" y="1300"/>
   <use xlink:href="#aa" fill="#f7f7f7" x="250" y="1300"/>
   <use xlink:href="#aa" fill="#fff" 		x="300" y="1300"/>
   <use xlink:href="#aa" fill="#848fa4" x="350" y="1300"/>
   <use xlink:href="#aa" fill="#ec2d2d" x="400" y="1300"/>
   <use xlink:href="#aa" fill="#039" 		x="450" y="1300"/>
   <use xlink:href="#aa" fill="#335fb9" x="500" y="1300"/>
   <use xlink:href="#aa" fill="#4086de" x="550" y="1300"/>
   <use xlink:href="#aa" fill="#ea0000" x="600" y="1300"/>
   <use xlink:href="#aa" fill="#2ebc12" x="650" y="1300"/>
   <use xlink:href="#ab" fill="#bf0000" 				y="1350"/>
   <use xlink:href="#ab" fill="#333" 		x="50"  y="1350"/>
   <use xlink:href="#ab" fill="#666" 		x="100" y="1350"/>
   <use xlink:href="#ab" fill="#999" 		x="150" y="1350"/>
   <use xlink:href="#ab" fill="#ddd" 		x="200" y="1350"/>
   <use xlink:href="#ab" fill="#f7f7f7" x="250" y="1350"/>
   <use xlink:href="#ab" fill="#fff" 		x="300" y="1350"/>
   <use xlink:href="#ab" fill="#848fa4" x="350" y="1350"/>
   <use xlink:href="#ab" fill="#ec2d2d" x="400" y="1350"/>
   <use xlink:href="#ab" fill="#039" 		x="450" y="1350"/>
   <use xlink:href="#ab" fill="#335fb9" x="500" y="1350"/>
   <use xlink:href="#ab" fill="#4086de" x="550" y="1350"/>
   <use xlink:href="#ab" fill="#ea0000" x="600" y="1350"/>
   <use xlink:href="#ab" fill="#2ebc12" x="650" y="1350"/>
   <use xlink:href="#ac" fill="#bf0000" 				y="1400"/>
   <use xlink:href="#ac" fill="#333" 		x="50"  y="1400"/>
   <use xlink:href="#ac" fill="#666" 		x="100" y="1400"/>
   <use xlink:href="#ac" fill="#999" 		x="150" y="1400"/>
   <use xlink:href="#ac" fill="#ddd" 		x="200" y="1400"/>
   <use xlink:href="#ac" fill="#f7f7f7" x="250" y="1400"/>
   <use xlink:href="#ac" fill="#fff" 		x="300" y="1400"/>
   <use xlink:href="#ac" fill="#848fa4" x="350" y="1400"/>
   <use xlink:href="#ac" fill="#ec2d2d" x="400" y="1400"/>
   <use xlink:href="#ac" fill="#039" 		x="450" y="1400"/>
   <use xlink:href="#ac" fill="#335fb9" x="500" y="1400"/>
   <use xlink:href="#ac" fill="#4086de" x="550" y="1400"/>
   <use xlink:href="#ac" fill="#ea0000" x="600" y="1400"/>
   <use xlink:href="#ac" fill="#2ebc12" x="650" y="1400"/>
   <use xlink:href="#ad" fill="#bf0000" 				y="1450"/>
   <use xlink:href="#ad" fill="#333" 		x="50"  y="1450"/>
   <use xlink:href="#ad" fill="#666" 		x="100" y="1450"/>
   <use xlink:href="#ad" fill="#999" 		x="150" y="1450"/>
   <use xlink:href="#ad" fill="#ddd" 		x="200" y="1450"/>
   <use xlink:href="#ad" fill="#f7f7f7" x="250" y="1450"/>
   <use xlink:href="#ad" fill="#fff" 		x="300" y="1450"/>
   <use xlink:href="#ad" fill="#848fa4" x="350" y="1450"/>
   <use xlink:href="#ad" fill="#ec2d2d" x="400" y="1450"/>
   <use xlink:href="#ad" fill="#039" 		x="450" y="1450"/>
   <use xlink:href="#ad" fill="#335fb9" x="500" y="1450"/>
   <use xlink:href="#ad" fill="#4086de" x="550" y="1450"/>
   <use xlink:href="#ad" fill="#ea0000" x="600" y="1450"/>
   <use xlink:href="#ad" fill="#2ebc12" x="650" y="1450"/>
   <use xlink:href="#ae" fill="#bf0000" 				y="1500"/>
   <use xlink:href="#ae" fill="#333" 		x="50"  y="1500"/>
   <use xlink:href="#ae" fill="#666" 		x="100" y="1500"/>
   <use xlink:href="#ae" fill="#999" 		x="150" y="1500"/>
   <use xlink:href="#ae" fill="#ddd" 		x="200" y="1500"/>
   <use xlink:href="#ae" fill="#f7f7f7" x="250" y="1500"/>
   <use xlink:href="#ae" fill="#fff" 		x="300" y="1500"/>
   <use xlink:href="#ae" fill="#848fa4" x="350" y="1500"/>
   <use xlink:href="#ae" fill="#ec2d2d" x="400" y="1500"/>
   <use xlink:href="#ae" fill="#039" 		x="450" y="1500"/>
   <use xlink:href="#ae" fill="#335fb9" x="500" y="1500"/>
   <use xlink:href="#ae" fill="#4086de" x="550" y="1500"/>
   <use xlink:href="#ae" fill="#ea0000" x="600" y="1500"/>
   <use xlink:href="#ae" fill="#2ebc12" x="650" y="1500"/>
   <use xlink:href="#af" fill="#bf0000" 				y="1550"/>
   <use xlink:href="#af" fill="#333" 		x="50"  y="1550"/>
   <use xlink:href="#af" fill="#666" 		x="100" y="1550"/>
   <use xlink:href="#af" fill="#999" 		x="150" y="1550"/>
   <use xlink:href="#af" fill="#ddd" 		x="200" y="1550"/>
   <use xlink:href="#af" fill="#f7f7f7" x="250" y="1550"/>
   <use xlink:href="#af" fill="#fff" 		x="300" y="1550"/>
   <use xlink:href="#af" fill="#848fa4" x="350" y="1550"/>
   <use xlink:href="#af" fill="#ec2d2d" x="400" y="1550"/>
   <use xlink:href="#af" fill="#039" 		x="450" y="1550"/>
   <use xlink:href="#af" fill="#335fb9" x="500" y="1550"/>
   <use xlink:href="#af" fill="#4086de" x="550" y="1550"/>
   <use xlink:href="#af" fill="#ea0000" x="600" y="1550"/>
   <use xlink:href="#af" fill="#2ebc12" x="650" y="1550"/>
   <use xlink:href="#ag" fill="#bf0000" 				y="1600"/>
   <use xlink:href="#ag" fill="#333" 		x="50"  y="1600"/>
   <use xlink:href="#ag" fill="#666" 		x="100" y="1600"/>
   <use xlink:href="#ag" fill="#999" 		x="150" y="1600"/>
   <use xlink:href="#ag" fill="#ddd" 		x="200" y="1600"/>
   <use xlink:href="#ag" fill="#f7f7f7" x="250" y="1600"/>
   <use xlink:href="#ag" fill="#fff" 		x="300" y="1600"/>
   <use xlink:href="#ag" fill="#848fa4" x="350" y="1600"/>
   <use xlink:href="#ag" fill="#ec2d2d" x="400" y="1600"/>
   <use xlink:href="#ag" fill="#039" 		x="450" y="1600"/>
   <use xlink:href="#ag" fill="#335fb9" x="500" y="1600"/>
   <use xlink:href="#ag" fill="#4086de" x="550" y="1600"/>
   <use xlink:href="#ag" fill="#ea0000" x="600" y="1600"/>
   <use xlink:href="#ag" fill="#2ebc12" x="650" y="1600"/>
   <use xlink:href="#ah" fill="#bf0000" 				y="1650"/>
   <use xlink:href="#ah" fill="#333" 		x="50"  y="1650"/>
   <use xlink:href="#ah" fill="#666" 		x="100" y="1650"/>
   <use xlink:href="#ah" fill="#999" 		x="150" y="1650"/>
   <use xlink:href="#ah" fill="#ddd" 		x="200" y="1650"/>
   <use xlink:href="#ah" fill="#f7f7f7" x="250" y="1650"/>
   <use xlink:href="#ah" fill="#fff" 		x="300" y="1650"/>
   <use xlink:href="#ah" fill="#848fa4" x="350" y="1650"/>
   <use xlink:href="#ah" fill="#ec2d2d" x="400" y="1650"/>
   <use xlink:href="#ah" fill="#039" 		x="450" y="1650"/>
   <use xlink:href="#ah" fill="#335fb9" x="500" y="1650"/>
   <use xlink:href="#ah" fill="#4086de" x="550" y="1650"/>
   <use xlink:href="#ah" fill="#ea0000" x="600" y="1650"/>
   <use xlink:href="#ah" fill="#2ebc12" x="650" y="1650"/>
   <use xlink:href="#ai" fill="#bf0000" 				y="1700"/>
   <use xlink:href="#ai" fill="#333" 		x="50"  y="1700"/>
   <use xlink:href="#ai" fill="#666" 		x="100" y="1700"/>
   <use xlink:href="#ai" fill="#999" 		x="150" y="1700"/>
   <use xlink:href="#ai" fill="#ddd" 		x="200" y="1700"/>
   <use xlink:href="#ai" fill="#f7f7f7" x="250" y="1700"/>
   <use xlink:href="#ai" fill="#fff" 		x="300" y="1700"/>
   <use xlink:href="#ai" fill="#848fa4" x="350" y="1700"/>
   <use xlink:href="#ai" fill="#ec2d2d" x="400" y="1700"/>
   <use xlink:href="#ai" fill="#039" 		x="450" y="1700"/>
   <use xlink:href="#ai" fill="#335fb9" x="500" y="1700"/>
   <use xlink:href="#ai" fill="#4086de" x="550" y="1700"/>
   <use xlink:href="#ai" fill="#ea0000" x="600" y="1700"/>
   <use xlink:href="#ai" fill="#2ebc12" x="650" y="1700"/>
   <use xlink:href="#aj" fill="#bf0000" 				y="1750"/>
   <use xlink:href="#aj" fill="#333" 		x="50"  y="1750"/>
   <use xlink:href="#aj" fill="#666" 		x="100" y="1750"/>
   <use xlink:href="#aj" fill="#999" 		x="150" y="1750"/>
   <use xlink:href="#aj" fill="#ddd" 		x="200" y="1750"/>
   <use xlink:href="#aj" fill="#f7f7f7" x="250" y="1750"/>
   <use xlink:href="#aj" fill="#fff" 		x="300" y="1750"/>
   <use xlink:href="#aj" fill="#848fa4" x="350" y="1750"/>
   <use xlink:href="#aj" fill="#ec2d2d" x="400" y="1750"/>
   <use xlink:href="#aj" fill="#039" 		x="450" y="1750"/>
   <use xlink:href="#aj" fill="#335fb9" x="500" y="1750"/>
   <use xlink:href="#aj" fill="#4086de" x="550" y="1750"/>
   <use xlink:href="#aj" fill="#ea0000" x="600" y="1750"/>
   <use xlink:href="#aj" fill="#2ebc12" x="650" y="1750"/>
   <use xlink:href="#ak" fill="#bf0000" 				y="1800"/>
   <use xlink:href="#ak" fill="#333" 		x="50"  y="1800"/>
   <use xlink:href="#ak" fill="#666" 		x="100" y="1800"/>
   <use xlink:href="#ak" fill="#999" 		x="150" y="1800"/>
   <use xlink:href="#ak" fill="#ddd" 		x="200" y="1800"/>
   <use xlink:href="#ak" fill="#f7f7f7" x="250" y="1800"/>
   <use xlink:href="#ak" fill="#fff" 		x="300" y="1800"/>
   <use xlink:href="#ak" fill="#848fa4" x="350" y="1800"/>
   <use xlink:href="#ak" fill="#ec2d2d" x="400" y="1800"/>
   <use xlink:href="#ak" fill="#039" 		x="450" y="1800"/>
   <use xlink:href="#ak" fill="#335fb9" x="500" y="1800"/>
   <use xlink:href="#ak" fill="#4086de" x="550" y="1800"/>
   <use xlink:href="#ak" fill="#ea0000" x="600" y="1800"/>
   <use xlink:href="#ak" fill="#2ebc12" x="650" y="1800"/>
   <use xlink:href="#al" fill="#bf0000" 				y="1850"/>
   <use xlink:href="#al" fill="#333" 		x="50"  y="1850"/>
   <use xlink:href="#al" fill="#666" 		x="100" y="1850"/>
   <use xlink:href="#al" fill="#999" 		x="150" y="1850"/>
   <use xlink:href="#al" fill="#ddd" 		x="200" y="1850"/>
   <use xlink:href="#al" fill="#f7f7f7" x="250" y="1850"/>
   <use xlink:href="#al" fill="#fff" 		x="300" y="1850"/>
   <use xlink:href="#al" fill="#848fa4" x="350" y="1850"/>
   <use xlink:href="#al" fill="#ec2d2d" x="400" y="1850"/>
   <use xlink:href="#al" fill="#039" 		x="450" y="1850"/>
   <use xlink:href="#al" fill="#335fb9" x="500" y="1850"/>
   <use xlink:href="#al" fill="#4086de" x="550" y="1850"/>
   <use xlink:href="#al" fill="#ea0000" x="600" y="1850"/>
   <use xlink:href="#al" fill="#2ebc12" x="650" y="1850"/>
   <use xlink:href="#am" fill="#bf0000" 				y="1900"/>
   <use xlink:href="#am" fill="#333" 		x="50"  y="1900"/>
   <use xlink:href="#am" fill="#666" 		x="100" y="1900"/>
   <use xlink:href="#am" fill="#999" 		x="150" y="1900"/>
   <use xlink:href="#am" fill="#ddd" 		x="200" y="1900"/>
   <use xlink:href="#am" fill="#f7f7f7" x="250" y="1900"/>
   <use xlink:href="#am" fill="#fff" 		x="300" y="1900"/>
   <use xlink:href="#am" fill="#848fa4" x="350" y="1900"/>
   <use xlink:href="#am" fill="#ec2d2d" x="400" y="1900"/>
   <use xlink:href="#am" fill="#039" 		x="450" y="1900"/>
   <use xlink:href="#am" fill="#335fb9" x="500" y="1900"/>
   <use xlink:href="#am" fill="#4086de" x="550" y="1900"/>
   <use xlink:href="#am" fill="#ea0000" x="600" y="1900"/>
   <use xlink:href="#am" fill="#2ebc12" x="650" y="1900"/>
   <use xlink:href="#an" fill="#bf0000" 				y="1950"/>
   <use xlink:href="#an" fill="#333" 		x="50"  y="1950"/>
   <use xlink:href="#an" fill="#666" 		x="100" y="1950"/>
   <use xlink:href="#an" fill="#999" 		x="150" y="1950"/>
   <use xlink:href="#an" fill="#ddd" 		x="200" y="1950"/>
   <use xlink:href="#an" fill="#f7f7f7" x="250" y="1950"/>
   <use xlink:href="#an" fill="#fff" 		x="300" y="1950"/>
   <use xlink:href="#an" fill="#848fa4" x="350" y="1950"/>
   <use xlink:href="#an" fill="#ec2d2d" x="400" y="1950"/>
   <use xlink:href="#an" fill="#039" 		x="450" y="1950"/>
   <use xlink:href="#an" fill="#335fb9" x="500" y="1950"/>
   <use xlink:href="#an" fill="#4086de" x="550" y="1950"/>
   <use xlink:href="#an" fill="#ea0000" x="600" y="1950"/>
   <use xlink:href="#an" fill="#2ebc12" x="650" y="1950"/>
   <use xlink:href="#ao" fill="#bf0000" 				y="2000"/>
   <use xlink:href="#ao" fill="#333" 		x="50"  y="2000"/>
   <use xlink:href="#ao" fill="#666" 		x="100" y="2000"/>
   <use xlink:href="#ao" fill="#999" 		x="150" y="2000"/>
   <use xlink:href="#ao" fill="#ddd" 		x="200" y="2000"/>
   <use xlink:href="#ao" fill="#f7f7f7" x="250" y="2000"/>
   <use xlink:href="#ao" fill="#fff" 		x="300" y="2000"/>
   <use xlink:href="#ao" fill="#848fa4" x="350" y="2000"/>
   <use xlink:href="#ao" fill="#ec2d2d" x="400" y="2000"/>
   <use xlink:href="#ao" fill="#039" 		x="450" y="2000"/>
   <use xlink:href="#ao" fill="#335fb9" x="500" y="2000"/>
   <use xlink:href="#ao" fill="#4086de" x="550" y="2000"/>
   <use xlink:href="#ao" fill="#ea0000" x="600" y="2000"/>
   <use xlink:href="#ao" fill="#2ebc12" x="650" y="2000"/>
   <use xlink:href="#ap" fill="#bf0000" 				y="2050"/>
   <use xlink:href="#ap" fill="#333" 		x="50"  y="2050"/>
   <use xlink:href="#ap" fill="#666" 		x="100" y="2050"/>
   <use xlink:href="#ap" fill="#999" 		x="150" y="2050"/>
   <use xlink:href="#ap" fill="#ddd" 		x="200" y="2050"/>
   <use xlink:href="#ap" fill="#f7f7f7" x="250" y="2050"/>
   <use xlink:href="#ap" fill="#fff" 		x="300" y="2050"/>
   <use xlink:href="#ap" fill="#848fa4" x="350" y="2050"/>
   <use xlink:href="#ap" fill="#ec2d2d" x="400" y="2050"/>
   <use xlink:href="#ap" fill="#039" 		x="450" y="2050"/>
   <use xlink:href="#ap" fill="#335fb9" x="500" y="2050"/>
   <use xlink:href="#ap" fill="#4086de" x="550" y="2050"/>
   <use xlink:href="#ap" fill="#ea0000" x="600" y="2050"/>
   <use xlink:href="#ap" fill="#2ebc12" x="650" y="2050"/>
   <use xlink:href="#aq" fill="#bf0000"                     y="2100"/>
   <use xlink:href="#aq" fill="#333"            x="50"  y="2100"/>
   <use xlink:href="#aq" fill="#666"            x="100" y="2100"/>
   <use xlink:href="#aq" fill="#999"            x="150" y="2100"/>
   <use xlink:href="#aq" fill="#ddd"            x="200" y="2100"/>
   <use xlink:href="#aq" fill="#f7f7f7" x="250" y="2100"/>
   <use xlink:href="#aq" fill="#fff"            x="300" y="2100"/>
   <use xlink:href="#aq" fill="#848fa4" x="350" y="2100"/>
   <use xlink:href="#aq" fill="#ec2d2d" x="400" y="2100"/>
   <use xlink:href="#aq" fill="#039"            x="450" y="2100"/>
   <use xlink:href="#aq" fill="#335fb9" x="500" y="2100"/>
   <use xlink:href="#aq" fill="#4086de" x="550" y="2100"/>
   <use xlink:href="#aq" fill="#ea0000" x="600" y="2100"/>
   <use xlink:href="#aq" fill="#2ebc12" x="650" y="2100"/>
   <use xlink:href="#ar" fill="#bf0000"                 y="2150"/>
   <use xlink:href="#ar" fill="#333"            x="50"  y="2150"/>
   <use xlink:href="#ar" fill="#666"            x="100" y="2150"/>
   <use xlink:href="#ar" fill="#999"            x="150" y="2150"/>
   <use xlink:href="#ar" fill="#ddd"            x="200" y="2150"/>
   <use xlink:href="#ar" fill="#f7f7f7" x="250" y="2150"/>
   <use xlink:href="#ar" fill="#fff"            x="300" y="2150"/>
   <use xlink:href="#ar" fill="#848fa4" x="350" y="2150"/>
   <use xlink:href="#ar" fill="#ec2d2d" x="400" y="2150"/>
   <use xlink:href="#ar" fill="#039"            x="450" y="2150"/>
   <use xlink:href="#ar" fill="#335fb9" x="500" y="2150"/>
   <use xlink:href="#ar" fill="#4086de" x="550" y="2150"/>
   <use xlink:href="#ar" fill="#ea0000" x="600" y="2150"/>
   <use xlink:href="#ar" fill="#2ebc12" x="650" y="2150"/>
   <use xlink:href="#as" fill="#bf0000"                 y="2200"/>
   <use xlink:href="#as" fill="#333"            x="50"  y="2200"/>
   <use xlink:href="#as" fill="#666"            x="100" y="2200"/>
   <use xlink:href="#as" fill="#999"            x="150" y="2200"/>
   <use xlink:href="#as" fill="#ddd"            x="200" y="2200"/>
   <use xlink:href="#as" fill="#f7f7f7" x="250" y="2200"/>
   <use xlink:href="#as" fill="#fff"            x="300" y="2200"/>
   <use xlink:href="#as" fill="#848fa4" x="350" y="2200"/>
   <use xlink:href="#as" fill="#ec2d2d" x="400" y="2200"/>
   <use xlink:href="#as" fill="#039"            x="450" y="2200"/>
   <use xlink:href="#as" fill="#335fb9" x="500" y="2200"/>
   <use xlink:href="#as" fill="#4086de" x="550" y="2200"/>
   <use xlink:href="#as" fill="#ea0000" x="600" y="2200"/>
   <use xlink:href="#as" fill="#2ebc12" x="650" y="2200"/>
   <use xlink:href="#at" fill="#bf0000"                 y="2250"/>
   <use xlink:href="#at" fill="#333"            x="50"  y="2250"/>
   <use xlink:href="#at" fill="#666"            x="100" y="2250"/>
   <use xlink:href="#at" fill="#999"            x="150" y="2250"/>
   <use xlink:href="#at" fill="#ddd"            x="200" y="2250"/>
   <use xlink:href="#at" fill="#f7f7f7" x="250" y="2250"/>
   <use xlink:href="#at" fill="#fff"            x="300" y="2250"/>
   <use xlink:href="#at" fill="#848fa4" x="350" y="2250"/>
   <use xlink:href="#at" fill="#ec2d2d" x="400" y="2250"/>
   <use xlink:href="#at" fill="#039"            x="450" y="2250"/>
   <use xlink:href="#at" fill="#335fb9" x="500" y="2250"/>
   <use xlink:href="#at" fill="#4086de" x="550" y="2250"/>
   <use xlink:href="#at" fill="#ea0000" x="600" y="2250"/>
   <use xlink:href="#at" fill="#2ebc12" x="650" y="2250"/>
</svg>