<svg xmlns="http://www.w3.org/2000/svg" xmlns:xlink="http://www.w3.org/1999/xlink" width="700" height="1000" viewBox="0 0 700 1000">
   <defs>
      <path id="a" d="M33.14 22.54a10.42 10.42 0 1 0-10.42 10.4 10.42 10.42 0 0 0 10.42-10.4zm-10.43 8.41a8.42 8.42 0 1 1 8.43-8.42 8.43 8.43 0 0 1-8.43 8.42zM37.1 33l-4.57-4.36A9 9 0 0 1 29.37 32l4.56 4.36a1.94 1.94 0 0 0 2.74-.06l.48-.5a1.94 1.94 0 0 0-.05-2.8z"/>
      <path id="b" d="M25 13.32l3.63 7.36 8.12 1.18-5.88 5.73 1.39 8.09L25 31.86l-7.26 3.82 1.39-8.09-5.88-5.73 8.12-1.18z"/>
      <path id="c" d="M15.25 29.3h14.11a.89.89 0 0 0 .85-.64l1.66-6.6V22l.95-3.77c.14-.61-.18-1.13-.7-1.13H13.31c-.53 0-.84.51-.71 1.13l1.81 10.48a.88.88 0 0 0 .84.59zm2.2-1.82h-1.81l-.29-2.17h2.09zm0-3.61h-2.29l-.24-1.81h2.53v1.81zm10.11-5.42H31l-.49 2.17h-3zm0 3.61h2.67l-.41 1.81h-2.26zm0 3.25h1.93L29 27.48h-1.44v-2.16zm-4.33-6.86h2.89v2.17h-2.89zm0 3.61h2.89v1.81h-2.89zm0 3.25h2.89v2.17h-2.89zm-4.33-6.86h2.89v2.17h-2.9zm0 3.61h2.89v1.81h-2.9zm0 3.25h2.89v2.17h-2.9zm-1.44-6.86v2.17h-2.73l-.29-2.17zm22.18-3.25h-4.7L31 30.37H15.24a.72.72 0 1 0 0 1.43H32.1l4.13-15.14h3.39a.73.73 0 1 0 0-1.45zm-22.21 17a1.8 1.8 0 1 0 1.79 1.8 1.8 1.8 0 0 0-1.81-1.81zm11.55 0a1.81 1.81 0 1 0 1.79 1.8A1.81 1.81 0 0 0 29 32.17z"/>
      <path id="d" d="M36.1 31.3V17.19a12.41 12.41 0 0 0-3.1-.94v6.63l-1.53-1.15L30 22.88V16a10.12 10.12 0 0 0-4.59 1.11v13.4a10.56 10.56 0 0 1 5.13-1.1 9.54 9.54 0 0 1 5.56 1.89zm-11.48-.77V17.14a10.22 10.22 0 0 0-5.1-1.14 13.58 13.58 0 0 0-5.63 1.17V31.3a9.72 9.72 0 0 1 5.63-1.87 10.32 10.32 0 0 1 5.1 1.1zm12.25-11.1v12.64h-10v.77h-3.78v-.77h-10V19.43H12v13.78h9.57V34h6.89v-.77H38v-13.8z"/>
      <path id="e" d="M35.67 30.43a18.71 18.71 0 0 0-6.75-1.68c-2.17 0-3.43.75-6.07 1-1.67.14-4.21.44-4.29 1.29s1.14 1 2.87 1.3 4.09-.1 4.15.15-.62.37-1.92.8a11.4 11.4 0 0 1-5.4.06c-1.36-.43-3.69-2.14-5.55-3.07S10 30 10 30.4s2.78 3.11 6 4.92c3 1.61 5 2.89 7 2.83 1.73-.05 7.8-2.09 9-2.45.9-.28 3.51 1.59 3.51 1.59L40 32.7s-2.54-1.47-4.33-2.27zm-4.34-15.3l-7.6-2.28-7.6 2.28 7.6 2.28zm-8 3l-7.22-2.28v8.36l7.22 2.28v-8.33zm8 6.08v-8.32l-7.22 2.28v8.35z"/>
      <path id="f" d="M25 11.53A13.47 13.47 0 1 0 38.47 25 13.47 13.47 0 0 0 25 11.53zm0 25.6A12.13 12.13 0 1 1 37.13 25 12.13 12.13 0 0 1 25 37.13zm3.83-19.32l-3.69 6.62-3.69-6.62h-4.36l4.27 6.89H18.3V27h4.48l.5.81v.35h-5v2.27h5v3.79H27v-3.79h5v-2.27h-5v-.35l.5-.81H32v-2.3h-3.06l4.27-6.89z"/>
      <path id="g" d="M31 21.5H16V23h15zm0-3H16V20h15zM26 26H16v1.5h10zm2.5 2.5h3v-3h-3zm7-9v-5H12v18h4v3h22v-16zM34 31H13.51V16H34z"/>
      <path id="h" d="M36.94 27c-.12-1.25-1.82-2-3.78-2.21 1.3-.39 2.24-1.05 2.24-2V19c-.15-1.58-2.85-2.31-5.38-2.31s-5.23.73-5.38 2.31v3.78c0 1.33 1.76 2.08 3.78 2.34-1.24.37-2.15 1-2.24 1.9v3.45a13 13 0 0 0-1.52-.09 12.88 12.88 0 0 0-1.7.11 1.75 1.75 0 0 0 .89-1.49V15.44c-.15-1.58-2.86-2.31-5.38-2.31s-5.23.73-5.38 2.31V29c0 1.68 2.8 2.44 5.4 2.44a12.88 12.88 0 0 0 1.7-.11 1.8 1.8 0 0 0-.91 1.31v3.78c0 1.68 2.8 2.45 5.4 2.45s5.4-.77 5.4-2.45v-3.3a13 13 0 0 0 1.53.09c2.6 0 5.41-.77 5.41-2.45V27zM18.45 14.69c2.23 0 3.54.59 3.8.88-.26.29-1.57.88-3.8.88s-3.54-.59-3.8-.88c.25-.29 1.56-.88 3.8-.88zm-3.83 2.66a10.23 10.23 0 0 0 3.83.66 10.23 10.23 0 0 0 3.84-.66V20c-.15.27-1.48.92-3.83.92s-3.71-.67-3.83-.88v-2.68zm0 4.43a10.24 10.24 0 0 0 3.83.66 10.23 10.23 0 0 0 3.84-.66v2.59c-.13.27-1.46.93-3.84.93s-3.71-.67-3.83-.88zm0 7.21v-2.77a10.24 10.24 0 0 0 3.83.66 10.24 10.24 0 0 0 3.84-.66v2.73c-.13.27-1.46.93-3.84.93s-3.72-.67-3.84-.88zM30 18.22c2.23 0 3.54.59 3.8.88-.26.29-1.57.88-3.8.88s-3.54-.59-3.8-.88c.27-.3 1.58-.88 3.8-.88zm-3.83 2.66a10.23 10.23 0 0 0 3.83.66 10.23 10.23 0 0 0 3.83-.66v1.81c-.13.27-1.46.93-3.84.93s-3.71-.67-3.83-.88zm5.36 5.35c2.24 0 3.55.59 3.81.88-.26.29-1.57.88-3.81.88s-3.55-.59-3.81-.88c.28-.29 1.59-.88 3.83-.88zM27 32.17a5 5 0 0 0 1.4.63 6.41 6.41 0 0 1-3.78.86c-2.23 0-3.54-.59-3.8-.88.26-.29 1.57-.88 3.8-.88a10 10 0 0 1 2.38.27zm-2.38 5.13c-2.38 0-3.71-.67-3.83-.88v-1.86a10.23 10.23 0 0 0 3.83.66 10.23 10.23 0 0 0 3.84-.66v1.81c-.13.27-1.46.93-3.84.93zm6.93-5.66a10.28 10.28 0 0 1-2.37-.26 5 5 0 0 0-1.47-.66V28.9a10.25 10.25 0 0 0 3.84.66 10.25 10.25 0 0 0 3.84-.66v1.81c-.13.29-1.46.94-3.84.94z"/>
      <path id="i" d="M12 35h4.21v-8.16h5.25v-4h-5.25V19.3h6.15V15H12zm21.38-10.31L37.6 15H33l-2.3 6.16L28.3 15h-4.61l4.25 9.58L23.26 35h4.68l2.68-6.43L33.29 35H38z"/>
      <path id="j" d="M37.1 12.9a1.92 1.92 0 0 1 0 2.67l-6 6 3.34 14-2 2-6-11.37-6 6 .28 3.8-1.65 1.66-2.24-4.46-4.45-2.22 1.75-1.74 3.6.4 6-6-11.37-6 2-2 14 3.34 6-6a1.92 1.92 0 0 1 2.74-.08z"/>
      <path id="k" d="M39.54 16H10.45A1.47 1.47 0 0 0 9 17.48v15A1.47 1.47 0 0 0 10.45 34h29.09A1.47 1.47 0 0 0 41 32.5v-15a1.47 1.47 0 0 0-1.46-1.5zM19.46 28.9h-2.27l-2.92-4.38v4.38H12v-8h2.25l2.94 4.41v-4.39h2.27zm3.57 0h-2.42v-8H23zm6.22-.2a4.61 4.61 0 0 1-1.88.34 3.82 3.82 0 0 1-2.76-.78 3.12 3.12 0 0 1-.87-2l2.3-.15a1.82 1.82 0 0 0 .3.87 1.26 1.26 0 0 0 1.07.48 1.16 1.16 0 0 0 .8-.25.75.75 0 0 0 .28-.57.74.74 0 0 0-.27-.55 3.06 3.06 0 0 0-1.22-.46 5.17 5.17 0 0 1-2.26-1 2 2 0 0 1-.74-1.51 2.12 2.12 0 0 1 .39-1.12 2.33 2.33 0 0 1 1-.86 4.82 4.82 0 0 1 1.92-.31 3.86 3.86 0 0 1 2.28.57 2.47 2.47 0 0 1 .93 1.81l-2.27.14a1.26 1.26 0 0 0-.38-.78 1.21 1.21 0 0 0-.8-.25 1 1 0 0 0-.63.18.56.56 0 0 0-.21.44.45.45 0 0 0 .18.34 1.94 1.94 0 0 0 .81.29 10 10 0 0 1 2.27.71 2.4 2.4 0 0 1 1 .88 2.28 2.28 0 0 1 .31 1.18 2.57 2.57 0 0 1-.41 1.41 2.61 2.61 0 0 1-1.14.95zm7.35.2l-.39-1.32h-2.73l-.38 1.32h-2.47l2.93-8h2.64l2.93 8zm-2.61-3h1.71l-.85-2.9z"/>
      <path id="l" d="M36.52 18.92l-9.33 5.75 10.54 3A13.13 13.13 0 0 0 38 25a13 13 0 0 0-1.48-6.08zm.28 7.31L30 24.29l6-3.72a11.82 11.82 0 0 1 .78 5.66zM25.89 12v11.38l9.69-6A13 13 0 0 0 25.89 12zm-1.77 0a13 13 0 1 0 13.11 17.39l-13.1-3.95zM25 36.85a11.87 11.87 0 0 1-2-23.56v13l.81.25 11.88 3.58A11.89 11.89 0 0 1 25 36.85z"/>
      <path id="m" d="M25.28,13.49C16.36,13.49,9.14,18.64,9.14,25s7.23,11.49,16.14,11.49S41.42,31.33,41.42,25,34.19,13.49,25.28,13.49ZM19.65,30.85H17.13c-1.5,0-2.12-.6-2.12-2.09V21.47c0-1.49.61-2.09,2.12-2.09h2.5c3.38,0,5.31,2,5.31,5.62S23,30.85,19.65,30.85ZM36.1,28.21a4.47,4.47,0,0,1-4.53,2.93c-3.44,0-5.34-2.32-5.34-6.06,0-3.56,1.88-6,5.29-6A4.49,4.49,0,0,1,36,21.76a1.44,1.44,0,0,1,.08.46,1.17,1.17,0,0,1-.94,1.08,2.7,2.7,0,0,1-.63.1,1.16,1.16,0,0,1-1.11-.7,1.89,1.89,0,0,0-1.88-1.17c-1.66,0-2.5,1.32-2.5,3.56s.83,3.63,2.54,3.63a1.84,1.84,0,0,0,1.9-1.38,1.18,1.18,0,0,1,1.16-.76,2.41,2.41,0,0,1,.6.1,1.1,1.1,0,0,1,.87,1.54ZM22.17,25c0,2.22-1,3.43-2.8,3.43H18.09a.41.41,0,0,1-.44-.42V22.24a.44.44,0,0,1,.41-.46h1.28C21.27,21.77,22.17,22.82,22.17,25Z"/>
      <path id="n" d="M15 23.3l13 7.51.87-1.5-13-7.51zm2.6-4.5l-.87 1.5 13 7.51.87-1.5zm-4.3 7.5l8.25 4.77.87-1.5-8.26-4.77zm9.14 7.28l3 1.73 1.73-3-3-1.73zM35.22 12l-6.86 2.07-2-2.84-7.26 5.08-2.53-1.46-7.8 13.51 18 10.4 1.81-3.13 12.63-3.7zm-8.86 25.18l-16-9.24L17 16.43l16 9.24zm11.91-8.88L29 15.08l5.4-1.63 5.34 17.7-10.39 3.21z"/>
      <path id="o" d="M36.72 23l.05-.1c1.45-2.78 1.63-5.14.5-6.64a5 5 0 0 0-4.18-1.64 12.06 12.06 0 0 0-1.93.17q-.51-.31-1-.56A12 12 0 0 0 13 26.81q.09.57.23 1.13c-1.44 2.77-1.61 5.12-.49 6.62a5 5 0 0 0 4.18 1.64 13.08 13.08 0 0 0 2.86-.35 26.45 26.45 0 0 0 9.56-4.68A25.85 25.85 0 0 0 36.72 23zM13.6 24.51v-.06q0-.53.09-1.06c0-.16 0-.32.08-.49v-.08c0-.15.06-.3.09-.45v-.07c0-.17.08-.33.13-.5a11.13 11.13 0 0 1 .57-1.54l.23-.46q.26-.49.57-1a11.25 11.25 0 0 1 1.51-1.8 11.14 11.14 0 0 1 1.23-1.07q.43-.32.88-.59l.42-.24c.26-.14.53-.26.79-.38a.51.51 0 0 0 .09.34c.18.16.52.42.73.36s.59-.17.55-.48-.3-.28-.39-.38l-.13-.17c.27-.09.55-.18.83-.25h.08l.46-.11.48-.09h.1l.39-.05h3.45a11.23 11.23 0 0 1 7.09 4.64l.22.34v.07l.18.3a2.84 2.84 0 0 1-.35.14c-.14 0-.45-.17-.52-.06s.34.94.35 1.47-.55.48-.68.43-.41.13-.43.59 0 .53-.1.57-.28-1-.27-1.17-.6-.43-.81-.29.21 1.5.15 1.77-.55.48-1 .73-1.52-.6-1.9-.57-.3.88-.26 1.31-.65.69-1 .57-.45-1.49-.68-1.4-.45 1.1-.36 1.64 0 .84-.23.93-.17-1.84.14-2.3.36-.9.15-1-.08-1.25-.07-1.54-1.53-.41-2-.24-.91.84-1.53 1.15-.29-1.2 0-1.84A1.91 1.91 0 0 0 22.7 18c-.54-.36-.46-1.49-.68-1.7s-.19 1 0 1.52-1.94.4-2.43.32.76-2.07.55-2.21-1.24 1.7-1.44 2.1.85.8.72 1-2.47 1.2-2.91 1.5-.47 1.72-.83 2.08a2.69 2.69 0 0 0-1.1 1.67 2.51 2.51 0 0 1-.9 1.41v-.24-.41-.11s-.08-.27-.08-.42zM29.1 27a4.25 4.25 0 0 0-.92.91c-.18.28-.41 0-.6-.12s-.47-.55-.39-.74c.23-.53.5-.51.85-.44a4.19 4.19 0 0 0 1.18-.22c.16 0 .06.53-.12.61zm-3.58-2.63c.43-.11.28.54.4 1s.24.79.33 1.25 0 .57-.25.68-.35-1.47-.32-1.64-.29-1.25-.16-1.29zm-7.95 10.16a9.18 9.18 0 0 1-1.15.08A4.09 4.09 0 0 1 13 33.23c-.9-1.2-.8-3 .25-5.19q.15.55.34 1.09a11.94 11.94 0 0 0 3.17 4.72c3-.13 7.15-1.94 11-4.79a28.22 28.22 0 0 0 5.83-5.74 5.49 5.49 0 0 1-.53-.22s-.29.2-.38.19.1-.47.17-.52a8.42 8.42 0 0 1 .95.11c.13 0 .33-.37.42-.48l.11-.17a2.4 2.4 0 0 1-.11-.25l.26-.22a.59.59 0 0 1 .08.13 10.41 10.41 0 0 0 1.05-2.34 11.91 11.91 0 0 0-3.34-4c-.24-.19-.49-.37-.75-.54l-.21-.13a9.3 9.3 0 0 1 1.23-.09 4.09 4.09 0 0 1 3.43 1.37c.81 1.08.79 2.63.1 4.4-1.1 2.81-3.9 6.18-7.85 9.13-3.66 2.66-7.6 4.46-10.65 4.84zm14-4.15c.06.14.12.28.16.4a1.77 1.77 0 0 1-.24 1c-.06.08 0-.41 0-.57s-.56-.13-.71-.14l-.92.71-.5.37a.5.5 0 0 0 .09.16c.12.12.84-.73 1.16-.79s-.37.87-.54 1.36a5.66 5.66 0 0 1-1.3 1.54c-.32.31-1.83.23-2 .23s0-.41-.06-.78a25.7 25.7 0 0 1-5.68 2.47 12 12 0 0 0 14-4.75 11.92 11.92 0 0 0 2-7.33 26.19 26.19 0 0 1-5.5 6.11z"/>
      <path id="p" d="M28 26.37a9.85 9.85 0 0 0 .66-2.48h1.74v-2.71h-1.72a9.84 9.84 0 0 0-.68-2.47l1.51-.87-1.36-2.35-1.54.89a10 10 0 0 0-1.82-1.77l.9-1.57-2.35-1.36-.92 1.6a9.86 9.86 0 0 0-2.42-.62v-1.88h-2.69v1.94a9.87 9.87 0 0 0-2.37.66l-1-1.7L11.61 13l1 1.74a10 10 0 0 0-1.68 1.73l-1.77-1-1.36 2.36 1.79 1A9.86 9.86 0 0 0 9 21.18H6.9v2.72H9a9.85 9.85 0 0 0 .61 2.31l-1.79 1 1.34 2.39 1.77-1a10 10 0 0 0 1.68 1.73l-1 1.74L14 33.41l1-1.7a9.89 9.89 0 0 0 2.37.66v1.93H20v-1.88a9.86 9.86 0 0 0 2.43-.61l.92 1.6L25.72 32l-.9-1.57a10 10 0 0 0 1.82-1.77l1.54.89 1.36-2.35zm-9.36 2a5.88 5.88 0 1 1 5.88-5.88 5.88 5.88 0 0 1-5.86 5.92zm24.44 4.7v-1.55h-1a5.77 5.77 0 0 0-.39-1.45l.89-.51-.8-1.38-.9.52a5.83 5.83 0 0 0-1.07-1l.53-.92-1.34-.84-.54.94a5.79 5.79 0 0 0-1.46-.36v-1.1h-1.6v1.14a5.78 5.78 0 0 0-1.39.39l-.58-1-1.38.8.59 1a5.9 5.9 0 0 0-1 1l-1-.6-.8 1.38 1.05.61a5.79 5.79 0 0 0-.36 1.36h-1.24v1.59h1.22a5.8 5.8 0 0 0 .36 1.36l-1.05.61.8 1.38 1-.6a5.87 5.87 0 0 0 1 1l-.59 1 1.38.8.58-1a5.78 5.78 0 0 0 1.39.39v1.14H37v-1.05a5.75 5.75 0 0 0 1.42-.36l.54.94 1.38-.8-.53-.9a5.85 5.85 0 0 0 1.07-1l.9.52.8-1.38-.89-.51a5.75 5.75 0 0 0 .39-1.45zm-6.91 2.65a3.45 3.45 0 1 1 3.45-3.45 3.45 3.45 0 0 1-3.43 3.5z"/>
      <path id="q" d="M23.91,28.89s-2.7-4.47-2.7-4.53c-0.52-1.21-.55-2.68.59-3.35L18,14.55c-1.24.89-5.33,5.66-.07,14.79C23.42,39,29.66,38,31,37.21l-3.75-6.3C26.13,31.54,25.34,30.71,23.91,28.89ZM34.9,34h0L32,29.05a0.93,0.93,0,0,0-1.28-.19l-2.21,1.3,3.76,6.32,2.21-1.3h0A0.92,0.92,0,0,0,34.9,34ZM25,19.14h0a0.92,0.92,0,0,0,.45-1.21h0l-3-5.05a0.93,0.93,0,0,0-1.28-.19L18.93,14l3.85,6.46Z"/>
      <path id="r" d="M28.43 24.92l-5.26-5.26-9.9 10.77 4.39 4.39zM20 36.85c-1.83 1.65-3 2.62-4.34 1.8a2.86 2.86 0 0 1-1.5-2 4.74 4.74 0 0 1 1.2-3.22l-.74-.67a5.67 5.67 0 0 0-1.45 4 3.4 3.4 0 0 0 1 1.95 5.19 5.19 0 0 0 1 .75c2 1.25 3.81-.36 5.53-1.91 2.28-2.06 4.64-4.19 8.17-1.23l.64-.76c-4.23-3.47-7.16-.83-9.51 1.29zM34.92 13a6.69 6.69 0 0 0-10.11.76l9.35 9.35A6.69 6.69 0 0 0 34.92 13zm-11.41 4.77l6.66 6.66a6.71 6.71 0 0 0 2.39-.43l-8.62-8.62a6.7 6.7 0 0 0-.43 2.39z"/>
      <path id="q" d="M25.16,17.62L14.37,25V36.06H22V27.82h6.34v8.24h7.61V25ZM35.3,19.75v-4H32.13v1.77l-7-4.85L10.58,22.83l1.65,2.35,12.92-8.8L38.1,25.2l1.63-2.37Z" />
      <path id="r" d="M25.16,15.37a10,10,0,1,0,10,10A10,10,0,0,0,25.16,15.37Zm5.66,14.24L29.41,31l-4.24-4.24L20.92,31l-1.41-1.41,4.24-4.24-4.24-4.24,1.41-1.41L25.16,24l4.24-4.24,1.41,1.41-4.24,4.24Z" />
      <path id="s" d="M31.5,21.5h-13a1,1,0,0,0-1,1v7a1,1,0,0,0,1,1h13a1,1,0,0,0,1-1v-7A1,1,0,0,0,31.5,21.5Zm-8.33,5.43H21.28v1.95h-1V23.36h2.94c1.23,0,1.69.55,1.69,1.77S24.5,26.93,23.17,26.93Zm4.93,2c-2,0-2.61-.46-2.61-2.72,0-2.06.31-2.91,2.47-2.91,1.53,0,2.43.27,2.45,2h-1c0-1-.53-1.11-1.43-1.11-1.25,0-1.55.19-1.55,2,0,1.5.15,1.91,1.48,1.91s1.52-.1,1.53-1.23h1C30.46,28.57,29.63,28.93,28.1,28.93Zm-5-4.69H21.28V26h1.81A0.73,0.73,0,0,0,24,25.15C24,24.32,23.63,24.25,23.1,24.25Z" />
      <path id="t" d="M29.75,31.87h-9v-13h9v2.5h1.5v-4h-12v16h12v-4h-1.5v2.5Zm6-6.5-4-4v2.5h-5.5v3h5.5v2.5Z" />
   </defs>
   <use xlink:href="#a" fill="#bf0000"/>
   <use xlink:href="#a" fill="#333" 	 x="50"/>
   <use xlink:href="#a" fill="#666" 	 x="100"/>
   <use xlink:href="#a" fill="#999" 	 x="150"/>
   <use xlink:href="#a" fill="#ddd" 	 x="200"/>
   <use xlink:href="#a" fill="#f7f7f7" x="250"/>
   <use xlink:href="#a" fill="#fff" 	 x="300"/>
   <use xlink:href="#a" fill="#848fa4" x="350"/>
   <use xlink:href="#a" fill="#ec2d2d" x="400"/>
   <use xlink:href="#a" fill="#039" 	 x="450"/>
   <use xlink:href="#a" fill="#335fb9" x="500"/>
   <use xlink:href="#a" fill="#4086de" x="550"/>
   <use xlink:href="#a" fill="#ea0000" x="600"/>
   <use xlink:href="#a" fill="#2ebc12" x="650"/>
   <use xlink:href="#b" fill="#bf0000" 				y="50"/>
   <use xlink:href="#b" fill="#333"		 x="50"  y="50"/>
   <use xlink:href="#b" fill="#666"		 x="100" y="50"/>
   <use xlink:href="#b" fill="#999"		 x="150" y="50"/>
   <use xlink:href="#b" fill="#ddd"		 x="200" y="50"/>
   <use xlink:href="#b" fill="#f7f7f7" x="250" y="50"/>
   <use xlink:href="#b" fill="#fff"		 x="300" y="50"/>
   <use xlink:href="#b" fill="#848fa4" x="350" y="50"/>
   <use xlink:href="#b" fill="#ec2d2d" x="400" y="50"/>
   <use xlink:href="#b" fill="#039"		 x="450" y="50"/>
   <use xlink:href="#b" fill="#335fb9" x="500" y="50"/>
   <use xlink:href="#b" fill="#4086de" x="550" y="50"/>
   <use xlink:href="#b" fill="#ea0000" x="600" y="50"/>
   <use xlink:href="#b" fill="#2ebc12" x="650" y="50"/>
   <use xlink:href="#c" fill="#bf0000" 				 y="100"/>
   <use xlink:href="#c" fill="#333"		 x="50"  y="100"/>
   <use xlink:href="#c" fill="#666"		 x="100" y="100"/>
   <use xlink:href="#c" fill="#999"		 x="150" y="100"/>
   <use xlink:href="#c" fill="#ddd"		 x="200" y="100"/>
   <use xlink:href="#c" fill="#f7f7f7" x="250" y="100"/>
   <use xlink:href="#c" fill="#fff"		 x="300" y="100"/>
   <use xlink:href="#c" fill="#848fa4" x="350" y="100"/>
   <use xlink:href="#c" fill="#ec2d2d" x="400" y="100"/>
   <use xlink:href="#c" fill="#039"		 x="450" y="100"/>
   <use xlink:href="#c" fill="#335fb9" x="500" y="100"/>
   <use xlink:href="#c" fill="#4086de" x="550" y="100"/>
   <use xlink:href="#c" fill="#ea0000" x="600" y="100"/>
   <use xlink:href="#c" fill="#2ebc12" x="650" y="100"/>
   <use xlink:href="#d" fill="#bf0000" 				 y="150"/>
   <use xlink:href="#d" fill="#333"		 x="50"  y="150"/>
   <use xlink:href="#d" fill="#666"		 x="100" y="150"/>
   <use xlink:href="#d" fill="#999"		 x="150" y="150"/>
   <use xlink:href="#d" fill="#ddd"		 x="200" y="150"/>
   <use xlink:href="#d" fill="#f7f7f7" x="250" y="150"/>
   <use xlink:href="#d" fill="#fff"		 x="300" y="150"/>
   <use xlink:href="#d" fill="#848fa4" x="350" y="150"/>
   <use xlink:href="#d" fill="#ec2d2d" x="400" y="150"/>
   <use xlink:href="#d" fill="#039"		 x="450" y="150"/>
   <use xlink:href="#d" fill="#335fb9" x="500" y="150"/>
   <use xlink:href="#d" fill="#4086de" x="550" y="150"/>
   <use xlink:href="#d" fill="#ea0000" x="600" y="150"/>
   <use xlink:href="#d" fill="#2ebc12" x="650" y="150"/>
   <use xlink:href="#e" fill="#bf0000" 				 y="200"/>
   <use xlink:href="#e" fill="#333"		 x="50"  y="200"/>
   <use xlink:href="#e" fill="#666"		 x="100" y="200"/>
   <use xlink:href="#e" fill="#999"		 x="150" y="200"/>
   <use xlink:href="#e" fill="#ddd"		 x="200" y="200"/>
   <use xlink:href="#e" fill="#f7f7f7" x="250" y="200"/>
   <use xlink:href="#e" fill="#fff"		 x="300" y="200"/>
   <use xlink:href="#e" fill="#848fa4" x="350" y="200"/>
   <use xlink:href="#e" fill="#ec2d2d" x="400" y="200"/>
   <use xlink:href="#e" fill="#039"		 x="450" y="200"/>
   <use xlink:href="#e" fill="#335fb9" x="500" y="200"/>
   <use xlink:href="#e" fill="#4086de" x="550" y="200"/>
   <use xlink:href="#e" fill="#ea0000" x="600" y="200"/>
   <use xlink:href="#e" fill="#2ebc12" x="650" y="200"/>
   <use xlink:href="#f" fill="#bf0000" 				 y="250"/>
   <use xlink:href="#f" fill="#333"		 x="50"  y="250"/>
   <use xlink:href="#f" fill="#666"		 x="100" y="250"/>
   <use xlink:href="#f" fill="#999"		 x="150" y="250"/>
   <use xlink:href="#f" fill="#ddd"		 x="200" y="250"/>
   <use xlink:href="#f" fill="#f7f7f7" x="250" y="250"/>
   <use xlink:href="#f" fill="#fff"		 x="300" y="250"/>
   <use xlink:href="#f" fill="#848fa4" x="350" y="250"/>
   <use xlink:href="#f" fill="#ec2d2d" x="400" y="250"/>
   <use xlink:href="#f" fill="#039"		 x="450" y="250"/>
   <use xlink:href="#f" fill="#335fb9" x="500" y="250"/>
   <use xlink:href="#f" fill="#4086de" x="550" y="250"/>
   <use xlink:href="#f" fill="#ea0000" x="600" y="250"/>
   <use xlink:href="#f" fill="#2ebc12" x="650" y="250"/>
   <use xlink:href="#g" fill="#bf0000" 				 y="300"/>
   <use xlink:href="#g" fill="#333"		 x="50"  y="300"/>
   <use xlink:href="#g" fill="#666"		 x="100" y="300"/>
   <use xlink:href="#g" fill="#999"		 x="150" y="300"/>
   <use xlink:href="#g" fill="#ddd"		 x="200" y="300"/>
   <use xlink:href="#g" fill="#f7f7f7" x="250" y="300"/>
   <use xlink:href="#g" fill="#fff"		 x="300" y="300"/>
   <use xlink:href="#g" fill="#848fa4" x="350" y="300"/>
   <use xlink:href="#g" fill="#ec2d2d" x="400" y="300"/>
   <use xlink:href="#g" fill="#039"		 x="450" y="300"/>
   <use xlink:href="#g" fill="#335fb9" x="500" y="300"/>
   <use xlink:href="#g" fill="#4086de" x="550" y="300"/>
   <use xlink:href="#g" fill="#ea0000" x="600" y="300"/>
   <use xlink:href="#g" fill="#2ebc12" x="650" y="300"/>
   <use xlink:href="#h" fill="#bf0000" 				 y="350"/>
   <use xlink:href="#h" fill="#333"		 x="50"  y="350"/>
   <use xlink:href="#h" fill="#666"		 x="100" y="350"/>
   <use xlink:href="#h" fill="#999"		 x="150" y="350"/>
   <use xlink:href="#h" fill="#ddd"		 x="200" y="350"/>
   <use xlink:href="#h" fill="#f7f7f7" x="250" y="350"/>
   <use xlink:href="#h" fill="#fff"		 x="300" y="350"/>
   <use xlink:href="#h" fill="#848fa4" x="350" y="350"/>
   <use xlink:href="#h" fill="#ec2d2d" x="400" y="350"/>
   <use xlink:href="#h" fill="#039"		 x="450" y="350"/>
   <use xlink:href="#h" fill="#335fb9" x="500" y="350"/>
   <use xlink:href="#h" fill="#4086de" x="550" y="350"/>
   <use xlink:href="#h" fill="#ea0000" x="600" y="350"/>
   <use xlink:href="#h" fill="#2ebc12" x="650" y="350"/>
   <use xlink:href="#i" fill="#bf0000" 				 y="400"/>
   <use xlink:href="#i" fill="#333"		 x="50"  y="400"/>
   <use xlink:href="#i" fill="#666"		 x="100" y="400"/>
   <use xlink:href="#i" fill="#999"		 x="150" y="400"/>
   <use xlink:href="#i" fill="#ddd"		 x="200" y="400"/>
   <use xlink:href="#i" fill="#f7f7f7" x="250" y="400"/>
   <use xlink:href="#i" fill="#fff"		 x="300" y="400"/>
   <use xlink:href="#i" fill="#848fa4" x="350" y="400"/>
   <use xlink:href="#i" fill="#ec2d2d" x="400" y="400"/>
   <use xlink:href="#i" fill="#039"		 x="450" y="400"/>
   <use xlink:href="#i" fill="#335fb9" x="500" y="400"/>
   <use xlink:href="#i" fill="#4086de" x="550" y="400"/>
   <use xlink:href="#i" fill="#ea0000" x="600" y="400"/>
   <use xlink:href="#i" fill="#2ebc12" x="650" y="400"/>
   <use xlink:href="#j" fill="#bf0000" 				 y="450"/>
   <use xlink:href="#j" fill="#333"		 x="50"  y="450"/>
   <use xlink:href="#j" fill="#666"		 x="100" y="450"/>
   <use xlink:href="#j" fill="#999"		 x="150" y="450"/>
   <use xlink:href="#j" fill="#ddd"		 x="200" y="450"/>
   <use xlink:href="#j" fill="#f7f7f7" x="250" y="450"/>
   <use xlink:href="#j" fill="#fff"		 x="300" y="450"/>
   <use xlink:href="#j" fill="#848fa4" x="350" y="450"/>
   <use xlink:href="#j" fill="#ec2d2d" x="400" y="450"/>
   <use xlink:href="#j" fill="#039"		 x="450" y="450"/>
   <use xlink:href="#j" fill="#335fb9" x="500" y="450"/>
   <use xlink:href="#j" fill="#4086de" x="550" y="450"/>
   <use xlink:href="#j" fill="#ea0000" x="600" y="450"/>
   <use xlink:href="#j" fill="#2ebc12" x="650" y="450"/>
   <use xlink:href="#k" fill="#bf0000" 				 y="500"/>
   <use xlink:href="#k" fill="#333"		 x="50"  y="500"/>
   <use xlink:href="#k" fill="#666"		 x="100" y="500"/>
   <use xlink:href="#k" fill="#999"		 x="150" y="500"/>
   <use xlink:href="#k" fill="#ddd"		 x="200" y="500"/>
   <use xlink:href="#k" fill="#f7f7f7" x="250" y="500"/>
   <use xlink:href="#k" fill="#fff"		 x="300" y="500"/>
   <use xlink:href="#k" fill="#848fa4" x="350" y="500"/>
   <use xlink:href="#k" fill="#ec2d2d" x="400" y="500"/>
   <use xlink:href="#k" fill="#039"		 x="450" y="500"/>
   <use xlink:href="#k" fill="#335fb9" x="500" y="500"/>
   <use xlink:href="#k" fill="#4086de" x="550" y="500"/>
   <use xlink:href="#k" fill="#ea0000" x="600" y="500"/>
   <use xlink:href="#k" fill="#2ebc12" x="650" y="500"/>
   <use xlink:href="#l" fill="#bf0000" 				 y="550"/>
   <use xlink:href="#l" fill="#333"		 x="50"  y="550"/>
   <use xlink:href="#l" fill="#666"		 x="100" y="550"/>
   <use xlink:href="#l" fill="#999"		 x="150" y="550"/>
   <use xlink:href="#l" fill="#ddd"		 x="200" y="550"/>
   <use xlink:href="#l" fill="#f7f7f7" x="250" y="550"/>
   <use xlink:href="#l" fill="#fff"		 x="300" y="550"/>
   <use xlink:href="#l" fill="#848fa4" x="350" y="550"/>
   <use xlink:href="#l" fill="#ec2d2d" x="400" y="550"/>
   <use xlink:href="#l" fill="#039"		 x="450" y="550"/>
   <use xlink:href="#l" fill="#335fb9" x="500" y="550"/>
   <use xlink:href="#l" fill="#4086de" x="550" y="550"/>
   <use xlink:href="#l" fill="#ea0000" x="600" y="550"/>
   <use xlink:href="#l" fill="#2ebc12" x="650" y="550"/>
   <use xlink:href="#m" fill="#bf0000" 				 y="600"/>
   <use xlink:href="#m" fill="#333"		 x="50"  y="600"/>
   <use xlink:href="#m" fill="#666"		 x="100" y="600"/>
   <use xlink:href="#m" fill="#999"		 x="150" y="600"/>
   <use xlink:href="#m" fill="#ddd"		 x="200" y="600"/>
   <use xlink:href="#m" fill="#f7f7f7" x="250" y="600"/>
   <use xlink:href="#m" fill="#fff"		 x="300" y="600"/>
   <use xlink:href="#m" fill="#848fa4" x="350" y="600"/>
   <use xlink:href="#m" fill="#ec2d2d" x="400" y="600"/>
   <use xlink:href="#m" fill="#039"		 x="450" y="600"/>
   <use xlink:href="#m" fill="#335fb9" x="500" y="600"/>
   <use xlink:href="#m" fill="#4086de" x="550" y="600"/>
   <use xlink:href="#m" fill="#ea0000" x="600" y="600"/>
   <use xlink:href="#m" fill="#2ebc12" x="650" y="600"/>
   <use xlink:href="#n" fill="#bf0000" 				 y="650"/>
   <use xlink:href="#n" fill="#333"		 x="50"  y="650"/>
   <use xlink:href="#n" fill="#666"		 x="100" y="650"/>
   <use xlink:href="#n" fill="#999"		 x="150" y="650"/>
   <use xlink:href="#n" fill="#ddd"		 x="200" y="650"/>
   <use xlink:href="#n" fill="#f7f7f7" x="250" y="650"/>
   <use xlink:href="#n" fill="#fff"		 x="300" y="650"/>
   <use xlink:href="#n" fill="#848fa4" x="350" y="650"/>
   <use xlink:href="#n" fill="#ec2d2d" x="400" y="650"/>
   <use xlink:href="#n" fill="#039"		 x="450" y="650"/>
   <use xlink:href="#n" fill="#335fb9" x="500" y="650"/>
   <use xlink:href="#n" fill="#4086de" x="550" y="650"/>
   <use xlink:href="#n" fill="#ea0000" x="600" y="650"/>
   <use xlink:href="#n" fill="#2ebc12" x="650" y="650"/>
   <use xlink:href="#o" fill="#bf0000" 				 y="700"/>
   <use xlink:href="#o" fill="#333"		 x="50"  y="700"/>
   <use xlink:href="#o" fill="#666"		 x="100" y="700"/>
   <use xlink:href="#o" fill="#999"		 x="150" y="700"/>
   <use xlink:href="#o" fill="#ddd"		 x="200" y="700"/>
   <use xlink:href="#o" fill="#f7f7f7" x="250" y="700"/>
   <use xlink:href="#o" fill="#fff"		 x="300" y="700"/>
   <use xlink:href="#o" fill="#848fa4" x="350" y="700"/>
   <use xlink:href="#o" fill="#ec2d2d" x="400" y="700"/>
   <use xlink:href="#o" fill="#039"		 x="450" y="700"/>
   <use xlink:href="#o" fill="#335fb9" x="500" y="700"/>
   <use xlink:href="#o" fill="#4086de" x="550" y="700"/>
   <use xlink:href="#o" fill="#ea0000" x="600" y="700"/>
   <use xlink:href="#o" fill="#2ebc12" x="650" y="700"/>
   <use xlink:href="#p" fill="#bf0000" 				 y="750"/>
   <use xlink:href="#p" fill="#333"		 x="50"  y="750"/>
   <use xlink:href="#p" fill="#666"		 x="100" y="750"/>
   <use xlink:href="#p" fill="#999"		 x="150" y="750"/>
   <use xlink:href="#p" fill="#ddd"		 x="200" y="750"/>
   <use xlink:href="#p" fill="#f7f7f7" x="250" y="750"/>
   <use xlink:href="#p" fill="#fff"		 x="300" y="750"/>
   <use xlink:href="#p" fill="#848fa4" x="350" y="750"/>
   <use xlink:href="#p" fill="#ec2d2d" x="400" y="750"/>
   <use xlink:href="#p" fill="#039"		 x="450" y="750"/>
   <use xlink:href="#p" fill="#335fb9" x="500" y="750"/>
   <use xlink:href="#p" fill="#4086de" x="550" y="750"/>
   <use xlink:href="#p" fill="#ea0000" x="600" y="750"/>
   <use xlink:href="#p" fill="#2ebc12" x="650" y="750"/>
   <use xlink:href="#q" fill="#bf0000" 				 y="800"/>
   <use xlink:href="#q" fill="#333"		 x="50"  y="800"/>
   <use xlink:href="#q" fill="#666"		 x="100" y="800"/>
   <use xlink:href="#q" fill="#999"		 x="150" y="800"/>
   <use xlink:href="#q" fill="#ddd"		 x="200" y="800"/>
   <use xlink:href="#q" fill="#f7f7f7" x="250" y="800"/>
   <use xlink:href="#q" fill="#fff"		 x="300" y="800"/>
   <use xlink:href="#q" fill="#848fa4" x="350" y="800"/>
   <use xlink:href="#q" fill="#ec2d2d" x="400" y="800"/>
   <use xlink:href="#q" fill="#039"		 x="450" y="800"/>
   <use xlink:href="#q" fill="#335fb9" x="500" y="800"/>
   <use xlink:href="#q" fill="#4086de" x="550" y="800"/>
   <use xlink:href="#q" fill="#ea0000" x="600" y="800"/>
   <use xlink:href="#q" fill="#2ebc12" x="650" y="800"/>
   <use xlink:href="#r" fill="#bf0000" 				 y="850"/>
   <use xlink:href="#r" fill="#333"		 x="50"  y="850"/>
   <use xlink:href="#r" fill="#666"		 x="100" y="850"/>
   <use xlink:href="#r" fill="#999"		 x="150" y="850"/>
   <use xlink:href="#r" fill="#ddd"		 x="200" y="850"/>
   <use xlink:href="#r" fill="#f7f7f7" x="250" y="850"/>
   <use xlink:href="#r" fill="#fff"		 x="300" y="850"/>
   <use xlink:href="#r" fill="#848fa4" x="350" y="850"/>
   <use xlink:href="#r" fill="#ec2d2d" x="400" y="850"/>
   <use xlink:href="#r" fill="#039"		 x="450" y="850"/>
   <use xlink:href="#r" fill="#335fb9" x="500" y="850"/>
   <use xlink:href="#r" fill="#4086de" x="550" y="850"/>
   <use xlink:href="#r" fill="#ea0000" x="600" y="850"/>
   <use xlink:href="#r" fill="#2ebc12" x="650" y="850"/>
   <use xlink:href="#s" fill="#bf0000" 				 y="900"/>
   <use xlink:href="#s" fill="#333"		 x="50"  y="900"/>
   <use xlink:href="#s" fill="#666"		 x="100" y="900"/>
   <use xlink:href="#s" fill="#999"		 x="150" y="900"/>
   <use xlink:href="#s" fill="#ddd"		 x="200" y="900"/>
   <use xlink:href="#s" fill="#f7f7f7" x="250" y="900"/>
   <use xlink:href="#s" fill="#fff"		 x="300" y="900"/>
   <use xlink:href="#s" fill="#848fa4" x="350" y="900"/>
   <use xlink:href="#s" fill="#ec2d2d" x="400" y="900"/>
   <use xlink:href="#s" fill="#039"		 x="450" y="900"/>
   <use xlink:href="#s" fill="#335fb9" x="500" y="900"/>
   <use xlink:href="#s" fill="#4086de" x="550" y="900"/>
   <use xlink:href="#s" fill="#ea0000" x="600" y="900"/>
   <use xlink:href="#s" fill="#2ebc12" x="650" y="900"/>
   <use xlink:href="#t" fill="#bf0000" 				 y="950"/>
   <use xlink:href="#t" fill="#333"		 x="50"  y="950"/>
   <use xlink:href="#t" fill="#666"		 x="100" y="950"/>
   <use xlink:href="#t" fill="#999"		 x="150" y="950"/>
   <use xlink:href="#t" fill="#ddd"		 x="200" y="950"/>
   <use xlink:href="#t" fill="#f7f7f7" x="250" y="950"/>
   <use xlink:href="#t" fill="#fff"		 x="300" y="950"/>
   <use xlink:href="#t" fill="#848fa4" x="350" y="950"/>
   <use xlink:href="#t" fill="#ec2d2d" x="400" y="950"/>
   <use xlink:href="#t" fill="#039"		 x="450" y="950"/>
   <use xlink:href="#t" fill="#335fb9" x="500" y="950"/>
   <use xlink:href="#t" fill="#4086de" x="550" y="950"/>
   <use xlink:href="#t" fill="#ea0000" x="600" y="950"/>
   <use xlink:href="#t" fill="#2ebc12" x="650" y="950"/>
</svg>