<svg xmlns="http://www.w3.org/2000/svg" xmlns:xlink="http://www.w3.org/1999/xlink" width="700" height="400" viewBox="0 0 700 400">
   <defs>
      <path id="ao" d="M25.45,14l-6.74,2,6.74,2,6.74-2Zm-0.34,4.72-6.4-2v7.41l6.4,2V18.67Zm7.07-2-6.4,2v7.41l6.4-2V16.65ZM11.8,26.93l6.74,2,6.74-2-6.74-2Zm0,8.08,6.4,2V29.63l-6.4-2V35Zm7.07,2,6.4-2V27.61l-6.4,2V37Zm13.7-12.13-6.74,2,6.74,2,6.74-2ZM25.83,35l6.4,2V29.63l-6.4-2V35Zm7.07,2,6.4-2V27.61l-6.4,2V37Z" />
      <path id="ap" d="M16.22,12.73v2.36l18.58,3.65v0l2.67-.64V15.74l-2.69.58ZM35.93,38.58l1.49-.39V18.89l-1.49.3V38.58Zm1.54-23.09L18.73,11.95l-2.52.52L34.8,16.09Zm-2.85,3.7L16.18,15.6A17.26,17.26,0,0,1,9,29.45L27.44,33S34.62,30,34.62,19.19Zm-8.16,3.39-3-.82c-0.22.6-.35,0.89-0.62,1.46l0.42,0.12a3,3,0,0,1,1.55,4.36A3.49,3.49,0,0,1,19.62,29a5.9,5.9,0,0,1-1.56-1.68,15.43,15.43,0,0,0,1.2-1.11,4.48,4.48,0,0,0,1.27,1.23,1.56,1.56,0,0,0,2.26-.54c0.6-1.08-.34-2.1-1.38-2.52A8,8,0,0,0,20.5,24a24.84,24.84,0,0,0,1.85-4.42l4.55,0.85A19.37,19.37,0,0,1,26.46,22.58Zm4.77,13.83L16.88,33.62v1.53l18.44,3.58V19.47a31.8,31.8,0,0,1-.55,6C33.89,33,31.22,36.41,31.22,36.41Zm3.13-11.65c-1.68,6.91-6.63,9-6.63,9L16.47,31.55,13,30.88c-0.37.8-.61,1.23-0.61,1.23l4.09,0.8,14.35,2.79S33.48,32.24,34.35,24.76Z" />
      <path id="aq" d="M25.16,17.62L14.37,25V36.06H22V27.82h6.34v8.24h7.61V25ZM35.3,19.75v-4H32.13v1.77l-7-4.85L10.58,22.83l1.65,2.35,12.92-8.8L38.1,25.2l1.63-2.37Z" />
      <path id="ar" d="M25.16,15.37a10,10,0,1,0,10,10A10,10,0,0,0,25.16,15.37Zm5.66,14.24L29.41,31l-4.24-4.24L20.92,31l-1.41-1.41,4.24-4.24-4.24-4.24,1.41-1.41L25.16,24l4.24-4.24,1.41,1.41-4.24,4.24Z" />
      <path id="as" d="M25.91,25H24.1a0.6,0.6,0,0,0-.6.6v1.79a0.6,0.6,0,0,0,.6.6h1.81a0.6,0.6,0,0,0,.6-0.6V25.64A0.6,0.6,0,0,0,25.91,25Zm7.48-10.53H16.61a2.11,2.11,0,0,0-2.11,2.11V29.39a2.11,2.11,0,0,0,2.11,2.11H21.5v4l5-4h6.9a2.11,2.11,0,0,0,2.11-2.11V16.62A2.11,2.11,0,0,0,33.39,14.51Zm-0.69,16H26.07l-3.58,3v-3H17.31a1.59,1.59,0,0,1-1.8-1.8V17.4a1.67,1.67,0,0,1,1.88-1.88H32.62A1.67,1.67,0,0,1,34.5,17.4V28.74A1.6,1.6,0,0,1,32.7,30.54Zm-6.79-13H24.1a0.6,0.6,0,0,0-.6.6v5.27a0.6,0.6,0,0,0,.6.6h1.81a0.6,0.6,0,0,0,.6-0.6V18.15A0.6,0.6,0,0,0,25.91,17.55Z" />
      <path id="at" d="M15,21h6V15H15v6Zm7,0h6V15H22v6Zm7-6v6h6V15H29ZM15,28h6V22H15v6Zm7,0h6V22H22v6Zm7,0h6V22H29v6ZM15,35h6V29H15v6Zm7,0h6V29H22v6Zm7,0h6V29H29v6Z" />
      <path id="au" d="M33.51,33.31c-.51,1.27-.68,1.49-2.76,1.44s-2.69.29-7,.44c-4.12.14-5.62-2.58-5.62-4.78s2.45-4.29,5-4.29,3.95.67,5.59,3.18c.3-3.74,1.2-4.32,1.63-7.71a3.05,3.05,0,0,1-2.51-.38c-.13.42-.42.72-.89.59s-.89-1.53-.89-1.53-.58-.23-.64-.62A12.93,12.93,0,0,1,26,16c.59-.3,3-.13,4.78.51s2.59,1.44,2.68,3.06,1.23,4.84,1.61,8.11S34,32,33.51,33.31ZM23,20l-2.51,3.45H18.62l2.51-3.49-2.51-4h1.88Zm-3.76,0-2.51,3.45H14.86l2.51-3.49-2.51-4h1.88Z"></path>
      <path id="av" d="M38.5,14h-27v3h27Zm0,18h-27v2h-2v2h31V34h-2Zm-1-12v9h3V20Zm-1,12V18h-23V32Zm-11-9h6v9h-6Zm-7,0h6v9h-6Z"></path>
   </defs>
   <use xlink:href="#ao" fill="#bf0000" 		        />
   <use xlink:href="#ao" fill="#333" 		x="50"  />
   <use xlink:href="#ao" fill="#666" 		x="100" />
   <use xlink:href="#ao" fill="#999" 		x="150" />
   <use xlink:href="#ao" fill="#ddd" 		x="200" />
   <use xlink:href="#ao" fill="#f7f7f7" x="250" />
   <use xlink:href="#ao" fill="#fff" 		x="300" />
   <use xlink:href="#ao" fill="#848fa4" x="350" />
   <use xlink:href="#ao" fill="#ec2d2d" x="400" />
   <use xlink:href="#ao" fill="#039" 		x="450" />
   <use xlink:href="#ao" fill="#335fb9" x="500" />
   <use xlink:href="#ao" fill="#4086de" x="550" />
   <use xlink:href="#ao" fill="#ea0000" x="600" />
   <use xlink:href="#ao" fill="#2ebc12" x="650" />
   <use xlink:href="#ap" fill="#bf0000" 				y="50"/>
   <use xlink:href="#ap" fill="#333" 		x="50"  y="50"/>
   <use xlink:href="#ap" fill="#666" 		x="100" y="50"/>
   <use xlink:href="#ap" fill="#999" 		x="150" y="50"/>
   <use xlink:href="#ap" fill="#ddd" 		x="200" y="50"/>
   <use xlink:href="#ap" fill="#f7f7f7" x="250" y="50"/>
   <use xlink:href="#ap" fill="#fff" 		x="300" y="50"/>
   <use xlink:href="#ap" fill="#848fa4" x="350" y="50"/>
   <use xlink:href="#ap" fill="#ec2d2d" x="400" y="50"/>
   <use xlink:href="#ap" fill="#039" 		x="450" y="50"/>
   <use xlink:href="#ap" fill="#335fb9" x="500" y="50"/>
   <use xlink:href="#ap" fill="#4086de" x="550" y="50"/>
   <use xlink:href="#ap" fill="#ea0000" x="600" y="50"/>
   <use xlink:href="#ap" fill="#2ebc12" x="650" y="50"/>
   <use xlink:href="#aq" fill="#bf0000"                     y="100"/>
   <use xlink:href="#aq" fill="#333"            x="50"  y="100"/>
   <use xlink:href="#aq" fill="#666"            x="100" y="100"/>
   <use xlink:href="#aq" fill="#999"            x="150" y="100"/>
   <use xlink:href="#aq" fill="#ddd"            x="200" y="100"/>
   <use xlink:href="#aq" fill="#f7f7f7" x="250" y="100"/>
   <use xlink:href="#aq" fill="#fff"            x="300" y="100"/>
   <use xlink:href="#aq" fill="#848fa4" x="350" y="100"/>
   <use xlink:href="#aq" fill="#ec2d2d" x="400" y="100"/>
   <use xlink:href="#aq" fill="#039"            x="450" y="100"/>
   <use xlink:href="#aq" fill="#335fb9" x="500" y="100"/>
   <use xlink:href="#aq" fill="#4086de" x="550" y="100"/>
   <use xlink:href="#aq" fill="#ea0000" x="600" y="100"/>
   <use xlink:href="#aq" fill="#2ebc12" x="650" y="100"/>
   <use xlink:href="#ar" fill="#bf0000"                 y="150"/>
   <use xlink:href="#ar" fill="#333"            x="50"  y="150"/>
   <use xlink:href="#ar" fill="#666"            x="100" y="150"/>
   <use xlink:href="#ar" fill="#999"            x="150" y="150"/>
   <use xlink:href="#ar" fill="#ddd"            x="200" y="150"/>
   <use xlink:href="#ar" fill="#f7f7f7" x="250" y="150"/>
   <use xlink:href="#ar" fill="#fff"            x="300" y="150"/>
   <use xlink:href="#ar" fill="#848fa4" x="350" y="150"/>
   <use xlink:href="#ar" fill="#ec2d2d" x="400" y="150"/>
   <use xlink:href="#ar" fill="#039"            x="450" y="150"/>
   <use xlink:href="#ar" fill="#335fb9" x="500" y="150"/>
   <use xlink:href="#ar" fill="#4086de" x="550" y="150"/>
   <use xlink:href="#ar" fill="#ea0000" x="600" y="150"/>
   <use xlink:href="#ar" fill="#2ebc12" x="650" y="150"/>
   <use xlink:href="#as" fill="#bf0000"                 y="200"/>
   <use xlink:href="#as" fill="#333"            x="50"  y="200"/>
   <use xlink:href="#as" fill="#666"            x="100" y="200"/>
   <use xlink:href="#as" fill="#999"            x="150" y="200"/>
   <use xlink:href="#as" fill="#ddd"            x="200" y="200"/>
   <use xlink:href="#as" fill="#f7f7f7" x="250" y="200"/>
   <use xlink:href="#as" fill="#fff"            x="300" y="200"/>
   <use xlink:href="#as" fill="#848fa4" x="350" y="200"/>
   <use xlink:href="#as" fill="#ec2d2d" x="400" y="200"/>
   <use xlink:href="#as" fill="#039"            x="450" y="200"/>
   <use xlink:href="#as" fill="#335fb9" x="500" y="200"/>
   <use xlink:href="#as" fill="#4086de" x="550" y="200"/>
   <use xlink:href="#as" fill="#ea0000" x="600" y="200"/>
   <use xlink:href="#as" fill="#2ebc12" x="650" y="200"/>
   <use xlink:href="#at" fill="#bf0000"                 y="250"/>
   <use xlink:href="#at" fill="#333"            x="50"  y="250"/>
   <use xlink:href="#at" fill="#666"            x="100" y="250"/>
   <use xlink:href="#at" fill="#999"            x="150" y="250"/>
   <use xlink:href="#at" fill="#ddd"            x="200" y="250"/>
   <use xlink:href="#at" fill="#f7f7f7" x="250" y="250"/>
   <use xlink:href="#at" fill="#fff"            x="300" y="250"/>
   <use xlink:href="#at" fill="#848fa4" x="350" y="250"/>
   <use xlink:href="#at" fill="#ec2d2d" x="400" y="250"/>
   <use xlink:href="#at" fill="#039"            x="450" y="250"/>
   <use xlink:href="#at" fill="#335fb9" x="500" y="250"/>
   <use xlink:href="#at" fill="#4086de" x="550" y="250"/>
   <use xlink:href="#at" fill="#ea0000" x="600" y="250"/>
   <use xlink:href="#at" fill="#2ebc12" x="650" y="250"/>
   <use xlink:href="#au" fill="#bf0000"                 y="300"/>
   <use xlink:href="#au" fill="#333"            x="50"  y="300"/>
   <use xlink:href="#au" fill="#666"            x="100" y="300"/>
   <use xlink:href="#au" fill="#999"            x="150" y="300"/>
   <use xlink:href="#au" fill="#ddd"            x="200" y="300"/>
   <use xlink:href="#au" fill="#f7f7f7" x="250" y="300"/>
   <use xlink:href="#au" fill="#fff"            x="300" y="300"/>
   <use xlink:href="#au" fill="#848fa4" x="350" y="300"/>
   <use xlink:href="#au" fill="#ec2d2d" x="400" y="300"/>
   <use xlink:href="#au" fill="#039"            x="450" y="300"/>
   <use xlink:href="#au" fill="#335fb9" x="500" y="300"/>
   <use xlink:href="#au" fill="#4086de" x="550" y="300"/>
   <use xlink:href="#au" fill="#ea0000" x="600" y="300"/>
   <use xlink:href="#au" fill="#2ebc12" x="650" y="300"/>
   <use xlink:href="#av" fill="#bf0000"                 y="350"/>
   <use xlink:href="#av" fill="#333"            x="50"  y="350"/>
   <use xlink:href="#av" fill="#666"            x="100" y="350"/>
   <use xlink:href="#av" fill="#999"            x="150" y="350"/>
   <use xlink:href="#av" fill="#ddd"            x="200" y="350"/>
   <use xlink:href="#av" fill="#f7f7f7" x="250" y="350"/>
   <use xlink:href="#av" fill="#fff"            x="300" y="350"/>
   <use xlink:href="#av" fill="#848fa4" x="350" y="350"/>
   <use xlink:href="#av" fill="#ec2d2d" x="400" y="350"/>
   <use xlink:href="#av" fill="#039"            x="450" y="350"/>
   <use xlink:href="#av" fill="#335fb9" x="500" y="350"/>
   <use xlink:href="#av" fill="#4086de" x="550" y="350"/>
   <use xlink:href="#av" fill="#ea0000" x="600" y="350"/>
   <use xlink:href="#av" fill="#2ebc12" x="650" y="350"/>
</svg>