<svg xmlns="http://www.w3.org/2000/svg" xmlns:xlink="http://www.w3.org/1999/xlink" width="700" height="1000" viewBox="0 0 700 1000">
   <defs>
      <path id="u" d="M36.47,17.88H14.85v2.21h0.88v2.65H14.85v4h0.88v2.65H14.85v1.77H36.47V17.88ZM27.64,28a3.53,3.53,0,1,1,3.53-3.53A3.53,3.53,0,0,1,27.64,28Zm7.72-1a1.1,1.1,0,1,1-1.54-1V23a1.1,1.1,0,1,1,.88,0V26A1.1,1.1,0,0,1,35.37,27Zm-7.71-3.84A1.37,1.37,0,1,0,29,24.5,1.37,1.37,0,0,0,27.65,23.13Zm10.73-8.77H12.91A1.61,1.61,0,0,0,11.31,16v17.1A1.61,1.61,0,0,0,13,34.64h1.89v1.77h2.65V34.64H33.82v1.77h2.65V34.64h2A1.53,1.53,0,0,0,40,33.07V16A1.61,1.61,0,0,0,38.39,14.36ZM37.35,32H14V29.35H13.08V26.7H14v-4H13.08V20.08H14V17H37.35V32Z" />
      <path id="v" d="M36.11,31.1a40.94,40.94,0,0,0-6.37-2.62s-3,2.94-4.3,2.94-4.3-2.94-4.3-2.94a41,41,0,0,0-6.37,2.62c-1.7,1.1-2.85,6.36-2.85,6.36H39S38.11,32.4,36.11,31.1ZM25.54,29c3.2,0,6.49-4.49,6.49-9.19s-2.9-7.31-6.49-7.31-6.49,2.6-6.49,7.31S22.31,29,25.54,29Z" />
      <path id="w" d="M23.47,28V22A17.4,17.4,0,0,0,34,17.78V32.22A17.4,17.4,0,0,0,23.47,28Zm-2.89,5.45L19.24,28H17.9a9.29,9.29,0,0,1-.58-2H16.57a0.67,0.67,0,0,1-.67-0.67V24.67A0.67,0.67,0,0,1,16.57,24h0.76a9.28,9.28,0,0,1,.58-2h4.55v6H21.25l1.34,5.46h-2Z" />
      <path id="x" d="M14.57,20.88a1.07,1.07,0,0,0,1.4-.57,5.44,5.44,0,0,1,4.84-3.54h8.3a5.44,5.44,0,0,1,4.84,3.54,1.07,1.07,0,1,0,2-.83,7.55,7.55,0,0,0-6.8-4.84H28A2.12,2.12,0,1,0,24.9,12a2.12,2.12,0,1,0-3.14,2.62h-1A7.55,7.55,0,0,0,14,19.48,1.06,1.06,0,0,0,14.57,20.88ZM24.9,13.76a2.13,2.13,0,0,0,.73.88H24.17A2.13,2.13,0,0,0,24.9,13.76ZM35,23.58c-1.89-1.1-2.34-5.75-5.25-5.75H20.2c-2.92,0-3.36,4.64-5.25,5.75a7.31,7.31,0,0,0-3.49,6.08,7.08,7.08,0,0,0,7.1,7.06H31.36a7.08,7.08,0,0,0,7.1-7.06A7.31,7.31,0,0,0,35,23.58ZM27.8,26.69a7.93,7.93,0,0,0,1.4-.09v1.55a8.78,8.78,0,0,0-1.4-.09H26.42L26,28.72V29h1.79a9,9,0,0,0,1.39-.09V30.5a8.17,8.17,0,0,0-1.39-.09H26v0.71a10,10,0,0,0,.1,1.75H23.81a12.63,12.63,0,0,0,.11-1.75V30.41H22.08a8.4,8.4,0,0,0-1.39.09V28.95a7.92,7.92,0,0,0,1.39.09h1.84V28.72l-0.43-.65H22.11a8.35,8.35,0,0,0-1.4.09V26.61a8.29,8.29,0,0,0,1.4.09h0.55L21,24c-0.31-.52-0.52-0.82-0.93-1.41h2.64a6.1,6.1,0,0,0,.6,1.27L25,26.79l1.64-2.9a5.53,5.53,0,0,0,.59-1.28h2.66c-0.18.25-.77,1.12-0.94,1.41l-1.65,2.67H27.8Z" />
      <path id="y" d="M19,18V32H31V18H19Zm5.5,3.5h1v3h-1v-3Zm-2-1.5h1v4.5h-1V20Zm-2,2h1v2.5h-1V22Zm9,8h-9V29.5h9V30Zm0-1.5h-9V28h9v0.5Zm0-1.5h-9V26.5h9V27Zm0-2.5h-3V24h3v0.5Zm0-1.5h-3V22.5h3V23Zm0-1.5h-3V21h3v0.5Z" />
      <path id="z" d="M18.16,18.32l2.91,11.53,6-1.93-5.39-6,6.5,5.7L33.45,26Zm9.31,13.54V28.69l-2.25.7Z" />
      <path id="aa" d="M26,20.5A2.5,2.5,0,1,0,23.5,18,2.5,2.5,0,0,0,26,20.5Zm0,3A2.5,2.5,0,1,0,28.5,26,2.5,2.5,0,0,0,26,23.5Zm0,8A2.5,2.5,0,1,0,28.5,34,2.5,2.5,0,0,0,26,31.5Z" />
      <path id="ab" d="M35,28.38v1h1v4H15.5v-4h1v-1h-2v6H37v-6H35Zm-8-.5v-2.5l-3,2.2v-9.2H21v9.2l-3-2.2v2.5l4.5,3.21Zm2.5,2h3V20.62l3,2.26v-2.5L31,17.13l-4.5,3.25v2.5l3-2.26v9.26Z" />
      <path id="ac" d="M24.93,15a10,10,0,0,0-9.87,8.46H13l2.84,3.51,2.84-3.51h-2a8.38,8.38,0,1,1,.26,4.15l-1.5.57A10,10,0,1,0,24.93,15Zm-0.76,4v7.53h0.19l0,0.16L30,28.26l0.41-1.53-4.66-1.27V19H24.17Z" />
      <path id="ad" d="M29,30l4-4-4-4H26l2.5,2.5H20v3h8.5L26,30h3ZM28.5,18v2.5h1V19h6V33h-6V31.5h-1V34h8V18h-8Zm-6,15h-6V19h6v3h1V18h-8V34h8V30h-1v3Z" />
      <path id="ae" d="M37.52,21.18l-8.9-5.48L15,24.59l8.9,5.48ZM21.18,22.83l1.47-1,3.29,1L25.14,20l1.47-1,0.69,3,1-.73L29,21.91,27.53,23l0.08,0.35,0.11,0.1,1.68-1.19,0.7,0.65-1.68,1.19,1.17,1.09-1.26.89L27.16,25l-1.68,1.19-0.7-.65,1.68-1.19-0.11-.1-0.42-.11-1.51,1.07-0.71-.66,1-.73Zm2.7,10.81-7.54-4.79L15,29.73l8.9,5.48,13.62-8.89-1.29-.8Zm0-2.54-7.54-4.79L15,27.19l8.9,5.48,13.62-8.89L36.23,23Z" />
      <path id="af" d="M25.32,28.75V26.5H22.11V25.21h-2l-3.87,3.57,5.87,5.45V31.32h9.64V26.5H27.9Zm0.32-.86,5.81-5.39-5.81-5.33v2.89H16v4.82h9.65v3Zm7.83-13V18h0.08l0,0.07,2.4,0.66,0.17-.65-2-.54V14.85H33.48Zm0.4-1.52a4.07,4.07,0,0,0-4,3.3H29.07l1.28,1.58,1.28-1.58h-0.8a3.15,3.15,0,1,1,.05,1.74L30,18.71A4.08,4.08,0,1,0,33.88,13.34Z" />
      <path id="ag" d="M22.56,22.28l2.84,2.84,4-4,1.7,1.6V17H25.43l1.63,1.73L25.4,20.38l-2.84-2.84-5.92,5.92L19,25.83Zm3.31,9,5.92-5.92L29.43,23l-3.55,3.55L23,23.7l-4,4L17.39,26v5.69h5.69l-1.71-1.64L23,28.43Zm8.65-4v3.18H34.6l0,0.07L37,31.17l0.17-.65-2-.54V27.27H34.52Zm0.4-1.52a4.07,4.07,0,0,0-4,3.3H30.11l1.28,1.58L32.67,29h-0.8a3.15,3.15,0,1,1,.05,1.74l-0.87.33A4.08,4.08,0,1,0,34.92,25.75Z" />
      <path id="ah" d="M24.76,16.12a13,13,0,0,0-.57,3.64,1.06,1.06,0,0,0,.64.63s0.43,1.41.9,1.54a0.72,0.72,0,0,0,.9-0.6,3.07,3.07,0,0,0,2.52.38c-0.43,3.42-1.34,4-1.64,7.76-1.65-2.53-3-3.2-5.62-3.2s-5.07,2.09-5.07,4.31,1.51,5,5.65,4.81c4.35-.15,5-0.48,7.06-0.44s2.26-.17,2.78-1.45,2-2.35,1.58-5.64-1.54-6.53-1.62-8.16-0.94-2.43-2.69-3.07S25.36,15.82,24.76,16.12Z" />
      <path id="ai" d="M37.43,21.8a1.74,1.74,0,0,0-2.73,2l-4.39,2.49L29.5,20.58a1.74,1.74,0,1,0-1.31-.24l-2.81,5.16-2.81-5.16a1.74,1.74,0,1,0-1.31.24l-0.81,5.74-4.39-2.49a1.74,1.74,0,1,0-1,.89l3.11,7a19.07,19.07,0,0,1,7.19-1.14,19.07,19.07,0,0,1,7.19,1.14l3.11-7A1.74,1.74,0,0,0,37.43,21.8ZM25.38,31.31a18,18,0,0,0-7,1.14v1.71a34.09,34.09,0,0,1,7-.84,34.18,34.18,0,0,1,7,.84V32.45A18,18,0,0,0,25.38,31.31Z" />
      <path id="aj" d="M30,30.5H20.5v1H30v-1ZM30,28H20.5v1H30V28ZM19.5,20.5h-1v1h1v-1Zm10.5,0H20.5v1H30v-1Zm0,5H20.5v1H30v-1ZM30,23H20.5v1H30V23ZM19.5,23h-1v1h1V23Zm-3-5.5v17H32v-17H16.5ZM31,33.5H17.5v-15H31v15ZM19.5,28h-1v1h1V28Zm0-2.5h-1v1h1v-1Zm0,5h-1v1h1v-1Z" />
      <path id="ak" d="M17.75,33.75h13.5V19.25H17.75v14.5Zm2-12.5h9.5v1h-9.5v-1Zm0,2h9.5v1h-9.5v-1Zm0,2h9.5v1h-9.5v-1Zm0,2h9.5v1h-9.5v-1Zm0,2h9.5v1h-9.5v-1Zm0,2h6v1h-6v-1Zm-0.5-14v1h13v14h1v-15h-14Z" />
      <path id="al" d="M13.5,35.75h11v-9h-11v9ZM28,15.25v20.5H39V15.25H28ZM11,25.75H27v-0.5H11v0.5Zm0-10H27v-0.5H11v0.5Zm4.69,6.42,2.81,2.24,2.81-2.24H19.62V18.81h1.68L18.5,16.56l-2.81,2.24h1.68v3.37H15.69Z" />
      <path id="am" d="M29.77,25.45H12.14l5,6.3V28.59l12.6-.06V25.45ZM12.14,21v3.15H29.77l-5-6.3V21H20.47a16.29,16.29,0,0,0,3.24-3.58,5.19,5.19,0,0,0,.05-5,3.68,3.68,0,0,0-3.32-1.85A4,4,0,0,0,17,12.23a4,4,0,0,0-3.47-1.61,3.67,3.67,0,0,0-3.32,1.85,5.18,5.18,0,0,0,.05,5A16.27,16.27,0,0,0,13.49,21H12.14Zm-0.77-4.22a3.91,3.91,0,0,1-.05-3.71,2.39,2.39,0,0,1,2.2-1.21c2.52,0,2.8,1.9,2.83,2.11h1.28c0-.09.23-2.11,2.83-2.11a2.39,2.39,0,0,1,2.2,1.21,3.91,3.91,0,0,1-.05,3.71A20.44,20.44,0,0,1,18.52,21H15.44A20.44,20.44,0,0,1,11.37,16.82ZM36.79,28l-6.08,2.14L38.17,32Zm-12.2,4.29L21,33.59l2.69,7.64L30.3,38.9l-6.88-1.65Zm1.18-2.83L24,36.88l15.82,3.8,1.78-7.4Z" />
      <path id="an" d="M40.89,32.09c-0.38-3.28-1.53-6.52-1.62-8.14s-0.94-2.43-2.69-3.07-4.21-.81-4.8-0.51A13,13,0,0,0,31.21,24a1.07,1.07,0,0,0,.64.63s0.43,1.41.89,1.53a0.72,0.72,0,0,0,.9-0.6,3.07,3.07,0,0,0,2.52.38c-0.43,3.41-1.34,4-1.63,7.75-1.65-2.53-3-3.2-5.61-3.2s-5.06,2.09-5.06,4.31,1.51,4.95,5.64,4.8c4.34-.15,5-0.48,7-0.44s2.26-.17,2.77-1.45S41.28,35.38,40.89,32.09ZM29.08,25.86H11.58l5,6.25V29l12.51-.06V25.86Zm-17.5-4.38v3.13h17.5l-5-6.25v3.13H19.85a16.17,16.17,0,0,0,3.22-3.55,5.15,5.15,0,0,0,.05-5,3.65,3.65,0,0,0-3.29-1.83,4,4,0,0,0-3.44,1.6,4,4,0,0,0-3.44-1.6A3.65,3.65,0,0,0,9.65,13a5.15,5.15,0,0,0,.05,5,16.16,16.16,0,0,0,3.22,3.55H11.58Zm-0.77-4.19a3.88,3.88,0,0,1-.05-3.69,2.37,2.37,0,0,1,2.18-1.2c2.5,0,2.78,1.88,2.81,2.09H17c0-.09.23-2.09,2.81-2.09A2.38,2.38,0,0,1,22,13.61,3.88,3.88,0,0,1,22,17.29a20.27,20.27,0,0,1-4,4.19H14.86A20.29,20.29,0,0,1,10.81,17.29Z" />
   </defs>
   <use xlink:href="#u" fill="#bf0000"             />
   <use xlink:href="#u" fill="#333"        x="50"  />
   <use xlink:href="#u" fill="#666"        x="100" />
   <use xlink:href="#u" fill="#999"        x="150" />
   <use xlink:href="#u" fill="#ddd"        x="200" />
   <use xlink:href="#u" fill="#f7f7f7" x="250" />
   <use xlink:href="#u" fill="#fff"        x="300" />
   <use xlink:href="#u" fill="#848fa4" x="350" />
   <use xlink:href="#u" fill="#ec2d2d" x="400" />
   <use xlink:href="#u" fill="#039"        x="450" />
   <use xlink:href="#u" fill="#335fb9" x="500" />
   <use xlink:href="#u" fill="#4086de" x="550" />
   <use xlink:href="#u" fill="#ea0000" x="600" />
   <use xlink:href="#u" fill="#2ebc12" x="650" />
   <use xlink:href="#v" fill="#bf0000"             y="50"/>
   <use xlink:href="#v" fill="#333"        x="50"  y="50"/>
   <use xlink:href="#v" fill="#666"        x="100" y="50"/>
   <use xlink:href="#v" fill="#999"        x="150" y="50"/>
   <use xlink:href="#v" fill="#ddd"        x="200" y="50"/>
   <use xlink:href="#v" fill="#f7f7f7" x="250" y="50"/>
   <use xlink:href="#v" fill="#fff"        x="300" y="50"/>
   <use xlink:href="#v" fill="#848fa4" x="350" y="50"/>
   <use xlink:href="#v" fill="#ec2d2d" x="400" y="50"/>
   <use xlink:href="#v" fill="#039"        x="450" y="50"/>
   <use xlink:href="#v" fill="#335fb9" x="500" y="50"/>
   <use xlink:href="#v" fill="#4086de" x="550" y="50"/>
   <use xlink:href="#v" fill="#ea0000" x="600" y="50"/>
   <use xlink:href="#v" fill="#2ebc12" x="650" y="50"/>
   <use xlink:href="#w" fill="#bf0000" 	 y="100" />
   <use xlink:href="#w" fill="#333"		 x="50" y="100"  />
   <use xlink:href="#w" fill="#666"		 x="100" y="100" />
   <use xlink:href="#w" fill="#999"		 x="150" y="100" />
   <use xlink:href="#w" fill="#ddd"		 x="200" y="100" />
   <use xlink:href="#w" fill="#f7f7f7" x="250" y="100" />
   <use xlink:href="#w" fill="#fff"		 x="300" y="100" />
   <use xlink:href="#w" fill="#848fa4" x="350" y="100" />
   <use xlink:href="#w" fill="#ec2d2d" x="400" y="100" />
   <use xlink:href="#w" fill="#039"		 x="450" y="100" />
   <use xlink:href="#w" fill="#335fb9" x="500" y="100" />
   <use xlink:href="#w" fill="#4086de" x="550" y="100" />
   <use xlink:href="#w" fill="#ea0000" x="600" y="100" />
   <use xlink:href="#w" fill="#2ebc12" x="650" y="100" />
   <use xlink:href="#x" fill="#bf0000" 				 y="150"/>
   <use xlink:href="#x" fill="#333"		 x="50"  y="150"/>
   <use xlink:href="#x" fill="#666"		 x="100" y="150"/>
   <use xlink:href="#x" fill="#999"		 x="150" y="150"/>
   <use xlink:href="#x" fill="#ddd"		 x="200" y="150"/>
   <use xlink:href="#x" fill="#f7f7f7" x="250" y="150"/>
   <use xlink:href="#x" fill="#fff"		 x="300" y="150"/>
   <use xlink:href="#x" fill="#848fa4" x="350" y="150"/>
   <use xlink:href="#x" fill="#ec2d2d" x="400" y="150"/>
   <use xlink:href="#x" fill="#039"		 x="450" y="150"/>
   <use xlink:href="#x" fill="#335fb9" x="500" y="150"/>
   <use xlink:href="#x" fill="#4086de" x="550" y="150"/>
   <use xlink:href="#x" fill="#ea0000" x="600" y="150"/>
   <use xlink:href="#x" fill="#2ebc12" x="650" y="150"/>
   <use xlink:href="#y" fill="#bf0000" 				 y="200"/>
   <use xlink:href="#y" fill="#333"		 x="50"  y="200"/>
   <use xlink:href="#y" fill="#666"		 x="100" y="200"/>
   <use xlink:href="#y" fill="#999"		 x="150" y="200"/>
   <use xlink:href="#y" fill="#ddd"		 x="200" y="200"/>
   <use xlink:href="#y" fill="#f7f7f7" x="250" y="200"/>
   <use xlink:href="#y" fill="#fff"		 x="300" y="200"/>
   <use xlink:href="#y" fill="#848fa4" x="350" y="200"/>
   <use xlink:href="#y" fill="#ec2d2d" x="400" y="200"/>
   <use xlink:href="#y" fill="#039"		 x="450" y="200"/>
   <use xlink:href="#y" fill="#335fb9" x="500" y="200"/>
   <use xlink:href="#y" fill="#4086de" x="550" y="200"/>
   <use xlink:href="#y" fill="#ea0000" x="600" y="200"/>
   <use xlink:href="#y" fill="#2ebc12" x="650" y="200"/>
   <use xlink:href="#z" fill="#bf0000" 				 y="250"/>
   <use xlink:href="#z" fill="#333"		 x="50"  y="250"/>
   <use xlink:href="#z" fill="#666"		 x="100" y="250"/>
   <use xlink:href="#z" fill="#999"		 x="150" y="250"/>
   <use xlink:href="#z" fill="#ddd"		 x="200" y="250"/>
   <use xlink:href="#z" fill="#f7f7f7" x="250" y="250"/>
   <use xlink:href="#z" fill="#fff"		 x="300" y="250"/>
   <use xlink:href="#z" fill="#848fa4" x="350" y="250"/>
   <use xlink:href="#z" fill="#ec2d2d" x="400" y="250"/>
   <use xlink:href="#z" fill="#039"		 x="450" y="250"/>
   <use xlink:href="#z" fill="#335fb9" x="500" y="250"/>
   <use xlink:href="#z" fill="#4086de" x="550" y="250"/>
   <use xlink:href="#z" fill="#ea0000" x="600" y="250"/>
   <use xlink:href="#z" fill="#2ebc12" x="650" y="250"/>
   <use xlink:href="#aa" fill="#bf0000" 			  y="300"/>
   <use xlink:href="#aa" fill="#333" 		x="50"  y="300"/>
   <use xlink:href="#aa" fill="#666" 		x="100" y="300"/>
   <use xlink:href="#aa" fill="#999" 		x="150" y="300"/>
   <use xlink:href="#aa" fill="#ddd" 		x="200" y="300"/>
   <use xlink:href="#aa" fill="#f7f7f7" x="250" y="300"/>
   <use xlink:href="#aa" fill="#fff" 		x="300" y="300"/>
   <use xlink:href="#aa" fill="#848fa4" x="350" y="300"/>
   <use xlink:href="#aa" fill="#ec2d2d" x="400" y="300"/>
   <use xlink:href="#aa" fill="#039" 		x="450" y="300"/>
   <use xlink:href="#aa" fill="#335fb9" x="500" y="300"/>
   <use xlink:href="#aa" fill="#4086de" x="550" y="300"/>
   <use xlink:href="#aa" fill="#ea0000" x="600" y="300"/>
   <use xlink:href="#aa" fill="#2ebc12" x="650" y="300"/>
   <use xlink:href="#ab" fill="#bf0000" 				y="350"/>
   <use xlink:href="#ab" fill="#333" 		x="50"  y="350"/>
   <use xlink:href="#ab" fill="#666" 		x="100" y="350"/>
   <use xlink:href="#ab" fill="#999" 		x="150" y="350"/>
   <use xlink:href="#ab" fill="#ddd" 		x="200" y="350"/>
   <use xlink:href="#ab" fill="#f7f7f7" x="250" y="350"/>
   <use xlink:href="#ab" fill="#fff" 		x="300" y="350"/>
   <use xlink:href="#ab" fill="#848fa4" x="350" y="350"/>
   <use xlink:href="#ab" fill="#ec2d2d" x="400" y="350"/>
   <use xlink:href="#ab" fill="#039" 		x="450" y="350"/>
   <use xlink:href="#ab" fill="#335fb9" x="500" y="350"/>
   <use xlink:href="#ab" fill="#4086de" x="550" y="350"/>
   <use xlink:href="#ab" fill="#ea0000" x="600" y="350"/>
   <use xlink:href="#ab" fill="#2ebc12" x="650" y="350"/>
   <use xlink:href="#ac" fill="#bf0000" 				y="400"/>
   <use xlink:href="#ac" fill="#333" 		x="50"  y="400"/>
   <use xlink:href="#ac" fill="#666" 		x="100" y="400"/>
   <use xlink:href="#ac" fill="#999" 		x="150" y="400"/>
   <use xlink:href="#ac" fill="#ddd" 		x="200" y="400"/>
   <use xlink:href="#ac" fill="#f7f7f7" x="250" y="400"/>
   <use xlink:href="#ac" fill="#fff" 		x="300" y="400"/>
   <use xlink:href="#ac" fill="#848fa4" x="350" y="400"/>
   <use xlink:href="#ac" fill="#ec2d2d" x="400" y="400"/>
   <use xlink:href="#ac" fill="#039" 		x="450" y="400"/>
   <use xlink:href="#ac" fill="#335fb9" x="500" y="400"/>
   <use xlink:href="#ac" fill="#4086de" x="550" y="400"/>
   <use xlink:href="#ac" fill="#ea0000" x="600" y="400"/>
   <use xlink:href="#ac" fill="#2ebc12" x="650" y="400"/>
   <use xlink:href="#ad" fill="#bf0000" 				y="450"/>
   <use xlink:href="#ad" fill="#333" 		x="50"  y="450"/>
   <use xlink:href="#ad" fill="#666" 		x="100" y="450"/>
   <use xlink:href="#ad" fill="#999" 		x="150" y="450"/>
   <use xlink:href="#ad" fill="#ddd" 		x="200" y="450"/>
   <use xlink:href="#ad" fill="#f7f7f7" x="250" y="450"/>
   <use xlink:href="#ad" fill="#fff" 		x="300" y="450"/>
   <use xlink:href="#ad" fill="#848fa4" x="350" y="450"/>
   <use xlink:href="#ad" fill="#ec2d2d" x="400" y="450"/>
   <use xlink:href="#ad" fill="#039" 		x="450" y="450"/>
   <use xlink:href="#ad" fill="#335fb9" x="500" y="450"/>
   <use xlink:href="#ad" fill="#4086de" x="550" y="450"/>
   <use xlink:href="#ad" fill="#ea0000" x="600" y="450"/>
   <use xlink:href="#ad" fill="#2ebc12" x="650" y="450"/>
   <use xlink:href="#ae" fill="#bf0000" 				y="500"/>
   <use xlink:href="#ae" fill="#333" 		x="50"  y="500"/>
   <use xlink:href="#ae" fill="#666" 		x="100" y="500"/>
   <use xlink:href="#ae" fill="#999" 		x="150" y="500"/>
   <use xlink:href="#ae" fill="#ddd" 		x="200" y="500"/>
   <use xlink:href="#ae" fill="#f7f7f7" x="250" y="500"/>
   <use xlink:href="#ae" fill="#fff" 		x="300" y="500"/>
   <use xlink:href="#ae" fill="#848fa4" x="350" y="500"/>
   <use xlink:href="#ae" fill="#ec2d2d" x="400" y="500"/>
   <use xlink:href="#ae" fill="#039" 		x="450" y="500"/>
   <use xlink:href="#ae" fill="#335fb9" x="500" y="500"/>
   <use xlink:href="#ae" fill="#4086de" x="550" y="500"/>
   <use xlink:href="#ae" fill="#ea0000" x="600" y="500"/>
   <use xlink:href="#ae" fill="#2ebc12" x="650" y="500"/>
   <use xlink:href="#af" fill="#bf0000" 				y="550"/>
   <use xlink:href="#af" fill="#333" 		x="50"  y="550"/>
   <use xlink:href="#af" fill="#666" 		x="100" y="550"/>
   <use xlink:href="#af" fill="#999" 		x="150" y="550"/>
   <use xlink:href="#af" fill="#ddd" 		x="200" y="550"/>
   <use xlink:href="#af" fill="#f7f7f7" x="250" y="550"/>
   <use xlink:href="#af" fill="#fff" 		x="300" y="550"/>
   <use xlink:href="#af" fill="#848fa4" x="350" y="550"/>
   <use xlink:href="#af" fill="#ec2d2d" x="400" y="550"/>
   <use xlink:href="#af" fill="#039" 		x="450" y="550"/>
   <use xlink:href="#af" fill="#335fb9" x="500" y="550"/>
   <use xlink:href="#af" fill="#4086de" x="550" y="550"/>
   <use xlink:href="#af" fill="#ea0000" x="600" y="550"/>
   <use xlink:href="#af" fill="#2ebc12" x="650" y="550"/>
   <use xlink:href="#ag" fill="#bf0000" 				y="600"/>
   <use xlink:href="#ag" fill="#333" 		x="50"  y="600"/>
   <use xlink:href="#ag" fill="#666" 		x="100" y="600"/>
   <use xlink:href="#ag" fill="#999" 		x="150" y="600"/>
   <use xlink:href="#ag" fill="#ddd" 		x="200" y="600"/>
   <use xlink:href="#ag" fill="#f7f7f7" x="250" y="600"/>
   <use xlink:href="#ag" fill="#fff" 		x="300" y="600"/>
   <use xlink:href="#ag" fill="#848fa4" x="350" y="600"/>
   <use xlink:href="#ag" fill="#ec2d2d" x="400" y="600"/>
   <use xlink:href="#ag" fill="#039" 		x="450" y="600"/>
   <use xlink:href="#ag" fill="#335fb9" x="500" y="600"/>
   <use xlink:href="#ag" fill="#4086de" x="550" y="600"/>
   <use xlink:href="#ag" fill="#ea0000" x="600" y="600"/>
   <use xlink:href="#ag" fill="#2ebc12" x="650" y="600"/>
   <use xlink:href="#ah" fill="#bf0000" 				y="650"/>
   <use xlink:href="#ah" fill="#333" 		x="50"  y="650"/>
   <use xlink:href="#ah" fill="#666" 		x="100" y="650"/>
   <use xlink:href="#ah" fill="#999" 		x="150" y="650"/>
   <use xlink:href="#ah" fill="#ddd" 		x="200" y="650"/>
   <use xlink:href="#ah" fill="#f7f7f7" x="250" y="650"/>
   <use xlink:href="#ah" fill="#fff" 		x="300" y="650"/>
   <use xlink:href="#ah" fill="#848fa4" x="350" y="650"/>
   <use xlink:href="#ah" fill="#ec2d2d" x="400" y="650"/>
   <use xlink:href="#ah" fill="#039" 		x="450" y="650"/>
   <use xlink:href="#ah" fill="#335fb9" x="500" y="650"/>
   <use xlink:href="#ah" fill="#4086de" x="550" y="650"/>
   <use xlink:href="#ah" fill="#ea0000" x="600" y="650"/>
   <use xlink:href="#ah" fill="#2ebc12" x="650" y="650"/>
   <use xlink:href="#ai" fill="#bf0000" 				y="700"/>
   <use xlink:href="#ai" fill="#333" 		x="50"  y="700"/>
   <use xlink:href="#ai" fill="#666" 		x="100" y="700"/>
   <use xlink:href="#ai" fill="#999" 		x="150" y="700"/>
   <use xlink:href="#ai" fill="#ddd" 		x="200" y="700"/>
   <use xlink:href="#ai" fill="#f7f7f7" x="250" y="700"/>
   <use xlink:href="#ai" fill="#fff" 		x="300" y="700"/>
   <use xlink:href="#ai" fill="#848fa4" x="350" y="700"/>
   <use xlink:href="#ai" fill="#ec2d2d" x="400" y="700"/>
   <use xlink:href="#ai" fill="#039" 		x="450" y="700"/>
   <use xlink:href="#ai" fill="#335fb9" x="500" y="700"/>
   <use xlink:href="#ai" fill="#4086de" x="550" y="700"/>
   <use xlink:href="#ai" fill="#ea0000" x="600" y="700"/>
   <use xlink:href="#ai" fill="#2ebc12" x="650" y="700"/>
   <use xlink:href="#aj" fill="#bf0000" 				y="750"/>
   <use xlink:href="#aj" fill="#333" 		x="50"  y="750"/>
   <use xlink:href="#aj" fill="#666" 		x="100" y="750"/>
   <use xlink:href="#aj" fill="#999" 		x="150" y="750"/>
   <use xlink:href="#aj" fill="#ddd" 		x="200" y="750"/>
   <use xlink:href="#aj" fill="#f7f7f7" x="250" y="750"/>
   <use xlink:href="#aj" fill="#fff" 		x="300" y="750"/>
   <use xlink:href="#aj" fill="#848fa4" x="350" y="750"/>
   <use xlink:href="#aj" fill="#ec2d2d" x="400" y="750"/>
   <use xlink:href="#aj" fill="#039" 		x="450" y="750"/>
   <use xlink:href="#aj" fill="#335fb9" x="500" y="750"/>
   <use xlink:href="#aj" fill="#4086de" x="550" y="750"/>
   <use xlink:href="#aj" fill="#ea0000" x="600" y="750"/>
   <use xlink:href="#aj" fill="#2ebc12" x="650" y="750"/>
   <use xlink:href="#ak" fill="#bf0000" 				y="800"/>
   <use xlink:href="#ak" fill="#333" 		x="50"  y="800"/>
   <use xlink:href="#ak" fill="#666" 		x="100" y="800"/>
   <use xlink:href="#ak" fill="#999" 		x="150" y="800"/>
   <use xlink:href="#ak" fill="#ddd" 		x="200" y="800"/>
   <use xlink:href="#ak" fill="#f7f7f7" x="250" y="800"/>
   <use xlink:href="#ak" fill="#fff" 		x="300" y="800"/>
   <use xlink:href="#ak" fill="#848fa4" x="350" y="800"/>
   <use xlink:href="#ak" fill="#ec2d2d" x="400" y="800"/>
   <use xlink:href="#ak" fill="#039" 		x="450" y="800"/>
   <use xlink:href="#ak" fill="#335fb9" x="500" y="800"/>
   <use xlink:href="#ak" fill="#4086de" x="550" y="800"/>
   <use xlink:href="#ak" fill="#ea0000" x="600" y="800"/>
   <use xlink:href="#ak" fill="#2ebc12" x="650" y="800"/>
   <use xlink:href="#al" fill="#bf0000" 				y="850"/>
   <use xlink:href="#al" fill="#333" 		x="50"  y="850"/>
   <use xlink:href="#al" fill="#666" 		x="100" y="850"/>
   <use xlink:href="#al" fill="#999" 		x="150" y="850"/>
   <use xlink:href="#al" fill="#ddd" 		x="200" y="850"/>
   <use xlink:href="#al" fill="#f7f7f7" x="250" y="850"/>
   <use xlink:href="#al" fill="#fff" 		x="300" y="850"/>
   <use xlink:href="#al" fill="#848fa4" x="350" y="850"/>
   <use xlink:href="#al" fill="#ec2d2d" x="400" y="850"/>
   <use xlink:href="#al" fill="#039" 		x="450" y="850"/>
   <use xlink:href="#al" fill="#335fb9" x="500" y="850"/>
   <use xlink:href="#al" fill="#4086de" x="550" y="850"/>
   <use xlink:href="#al" fill="#ea0000" x="600" y="850"/>
   <use xlink:href="#al" fill="#2ebc12" x="650" y="850"/>
   <use xlink:href="#am" fill="#bf0000" 				y="900"/>
   <use xlink:href="#am" fill="#333" 		x="50"  y="900"/>
   <use xlink:href="#am" fill="#666" 		x="100" y="900"/>
   <use xlink:href="#am" fill="#999" 		x="150" y="900"/>
   <use xlink:href="#am" fill="#ddd" 		x="200" y="900"/>
   <use xlink:href="#am" fill="#f7f7f7" x="250" y="900"/>
   <use xlink:href="#am" fill="#fff" 		x="300" y="900"/>
   <use xlink:href="#am" fill="#848fa4" x="350" y="900"/>
   <use xlink:href="#am" fill="#ec2d2d" x="400" y="900"/>
   <use xlink:href="#am" fill="#039" 		x="450" y="900"/>
   <use xlink:href="#am" fill="#335fb9" x="500" y="900"/>
   <use xlink:href="#am" fill="#4086de" x="550" y="900"/>
   <use xlink:href="#am" fill="#ea0000" x="600" y="900"/>
   <use xlink:href="#am" fill="#2ebc12" x="650" y="900"/>
   <use xlink:href="#an" fill="#bf0000" 				y="950"/>
   <use xlink:href="#an" fill="#333" 		x="50"  y="950"/>
   <use xlink:href="#an" fill="#666" 		x="100" y="950"/>
   <use xlink:href="#an" fill="#999" 		x="150" y="950"/>
   <use xlink:href="#an" fill="#ddd" 		x="200" y="950"/>
   <use xlink:href="#an" fill="#f7f7f7" x="250" y="950"/>
   <use xlink:href="#an" fill="#fff" 		x="300" y="950"/>
   <use xlink:href="#an" fill="#848fa4" x="350" y="950"/>
   <use xlink:href="#an" fill="#ec2d2d" x="400" y="950"/>
   <use xlink:href="#an" fill="#039" 		x="450" y="950"/>
   <use xlink:href="#an" fill="#335fb9" x="500" y="950"/>
   <use xlink:href="#an" fill="#4086de" x="550" y="950"/>
   <use xlink:href="#an" fill="#ea0000" x="600" y="950"/>
   <use xlink:href="#an" fill="#2ebc12" x="650" y="950"/>
</svg>